<?xml version="1.0" encoding="UTF-8" standalone="no"?>
<!-- Created with Inkscape (http://www.inkscape.org/) -->

<svg
   width="120"
   height="120"
   viewBox="0 0 31.749998 31.750003"
   version="1.1"
   id="svg5"
   sodipodi:docname="de.zwarf.picplanner-blue.svg"
   inkscape:version="1.1.2 (0a00cf5339, 2022-02-04)"
   inkscape:export-filename="icon.png"
   inkscape:export-xdpi="960"
   inkscape:export-ydpi="960"
   xmlns:inkscape="http://www.inkscape.org/namespaces/inkscape"
   xmlns:sodipodi="http://sodipodi.sourceforge.net/DTD/sodipodi-0.dtd"
   xmlns:xlink="http://www.w3.org/1999/xlink"
   xmlns="http://www.w3.org/2000/svg"
   xmlns:svg="http://www.w3.org/2000/svg">
  <sodipodi:namedview
     id="namedview22"
     pagecolor="#ffffff"
     bordercolor="#666666"
     borderopacity="1.0"
     inkscape:pageshadow="2"
     inkscape:pageopacity="0.0"
     inkscape:pagecheckerboard="0"
     inkscape:document-units="mm"
     showgrid="false"
     units="px"
     inkscape:zoom="4"
     inkscape:cx="-18.75"
     inkscape:cy="53.5"
     inkscape:window-width="1920"
     inkscape:window-height="1043"
     inkscape:window-x="0"
     inkscape:window-y="0"
     inkscape:window-maximized="1"
     inkscape:current-layer="svg5"
     fit-margin-top="0"
     fit-margin-left="0"
     fit-margin-right="0"
     fit-margin-bottom="0"
     showguides="false" />
  <defs
     id="defs2">
    <inkscape:path-effect
       effect="powerclip"
       id="path-effect2333"
       is_visible="true"
       lpeversion="1"
       inverse="true"
       flatten="false"
       hide_clip="false"
       message="Füllregel Gerade-Ungerade im &lt;b&gt;Füllung und Kontur&lt;/b&gt;-Dialog verwenden, wenn das Anwenden des Ausschnitts mit nachfolgendem Umwandeln in Pfade kein Ergebnis bringt" />
    <inkscape:path-effect
       effect="powerclip"
       id="path-effect2329"
       is_visible="true"
       lpeversion="1"
       inverse="true"
       flatten="false"
       hide_clip="false"
       message="Füllregel Gerade-Ungerade im &lt;b&gt;Füllung und Kontur&lt;/b&gt;-Dialog verwenden, wenn das Anwenden des Ausschnitts mit nachfolgendem Umwandeln in Pfade kein Ergebnis bringt" />
    <linearGradient
       inkscape:collect="always"
       id="linearGradient3035">
      <stop
         style="stop-color:#a51d2d;stop-opacity:1"
         offset="0"
         id="stop3029" />
      <stop
         style="stop-color:#ed363e;stop-opacity:0.95686269"
         offset="0.501692"
         id="stop3031" />
      <stop
         style="stop-color:#a51d2d;stop-opacity:1"
         offset="1"
         id="stop3033" />
    </linearGradient>
    <linearGradient
       inkscape:collect="always"
       id="linearGradient4000">
      <stop
         style="stop-color:#ed333b;stop-opacity:1"
         offset="0"
         id="stop3996" />
      <stop
         style="stop-color:#c01c28;stop-opacity:1"
         offset="1"
         id="stop3998" />
    </linearGradient>
    <linearGradient
       inkscape:collect="always"
       id="linearGradient2186">
      <stop
         style="stop-color:#a51d2d;stop-opacity:1"
         offset="0"
         id="stop2182" />
      <stop
         style="stop-color:#ed333b;stop-opacity:0.95686275"
         offset="0.501692"
         id="stop2510" />
      <stop
         style="stop-color:#a51d2d;stop-opacity:1"
         offset="1"
         id="stop2184" />
    </linearGradient>
    <linearGradient
       inkscape:collect="always"
       id="linearGradient45239">
      <stop
         style="stop-color:#fa5050;stop-opacity:1"
         offset="0"
         id="stop45235" />
      <stop
         style="stop-color:#d23232;stop-opacity:1"
         offset="1"
         id="stop45237" />
    </linearGradient>
    <inkscape:path-effect
       effect="powerclip"
       id="path-effect2834"
       is_visible="true"
       lpeversion="1"
       inverse="true"
       flatten="false"
       hide_clip="false"
       message="Füllregel Gerade-Ungerade im &lt;b&gt;Füllung und Kontur&lt;/b&gt;-Dialog verwenden, wenn das Anwenden des Ausschnitts mit nachfolgendem Umwandeln in Pfade kein Ergebnis bringt" />
    <linearGradient
       id="linearGradient8520">
      <stop
         style="stop-color:#ffffff;stop-opacity:1"
         offset="0"
         id="stop8516" />
      <stop
         style="stop-color:#ffe100;stop-opacity:1"
         offset="1"
         id="stop8518" />
    </linearGradient>
    <linearGradient
       id="linearGradient853"
       inkscape:swatch="solid">
      <stop
         style="stop-color:#969696;stop-opacity:1;"
         offset="0"
         id="stop851" />
    </linearGradient>
    <linearGradient
       id="linearGradient11154">
      <stop
         style="stop-color:#ffffff;stop-opacity:1"
         offset="0"
         id="stop11150" />
      <stop
         style="stop-color:#ffe600;stop-opacity:1"
         offset="1"
         id="stop11152" />
    </linearGradient>
    <radialGradient
       xlink:href="#linearGradient8520"
       id="radialGradient11182"
       cx="183.50667"
       cy="142.3913"
       fx="183.50667"
       fy="142.3913"
       r="19"
       gradientUnits="userSpaceOnUse"
       gradientTransform="matrix(0.24329388,0,0,0.24329388,-22.554767,-34.747868)" />
    <radialGradient
       xlink:href="#linearGradient11154"
       id="radialGradient11182-2"
       cx="183.50667"
       cy="142.3913"
       fx="183.50667"
       fy="142.3913"
       r="19"
       gradientUnits="userSpaceOnUse"
       gradientTransform="matrix(0.85470377,0,0,0.85470377,132.80565,-9.7410232)" />
    <clipPath
       clipPathUnits="userSpaceOnUse"
       id="clipPath2054">
      <path
         id="path2056"
         style="fill:#dcdcdc;fill-opacity:1;fill-rule:evenodd;stroke:#000000;stroke-width:0.284292;stroke-linecap:round;stroke-linejoin:round"
         d="m 30.993803,-8.4356807 a 12.107855,12.107854 45 0 1 0,17.1230922 12.107855,12.107854 45 0 1 -17.123092,-6e-7 12.107855,12.107854 45 0 1 0,-17.1230921 12.107855,12.107854 45 0 1 17.123092,5e-7 z"
         clip-path="none" />
    </clipPath>
    <clipPath
       clipPathUnits="userSpaceOnUse"
       id="clipPath2058">
      <path
         id="path2060"
         style="fill:#dcdcdc;fill-opacity:1;fill-rule:evenodd;stroke:#000000;stroke-width:0.284292;stroke-linecap:round;stroke-linejoin:round"
         d="M 27.880855,15.951001 A 12.107854,12.107855 0 0 1 15.773001,28.058856 12.107854,12.107855 0 0 1 3.6651467,15.951001 12.107854,12.107855 0 0 1 15.773001,3.8431462 12.107854,12.107855 0 0 1 27.880855,15.951001 Z"
         clip-path="none" />
    </clipPath>
    <clipPath
       clipPathUnits="userSpaceOnUse"
       id="clipPath2062">
      <path
         id="path2064"
         style="fill:#dcdcdc;fill-opacity:1;fill-rule:evenodd;stroke:#000000;stroke-width:0.284292;stroke-linecap:round;stroke-linejoin:round"
         d="M 27.880855,15.951001 A 12.107854,12.107855 0 0 1 15.773001,28.058856 12.107854,12.107855 0 0 1 3.6651467,15.951001 12.107854,12.107855 0 0 1 15.773001,3.8431462 12.107854,12.107855 0 0 1 27.880855,15.951001 Z"
         clip-path="none" />
    </clipPath>
    <clipPath
       clipPathUnits="userSpaceOnUse"
       id="clipPath2066">
      <path
         id="path2068"
         style="fill:#dcdcdc;fill-opacity:1;fill-rule:evenodd;stroke:#000000;stroke-width:0.284292;stroke-linecap:round;stroke-linejoin:round"
         d="M 27.880855,15.951001 A 12.107854,12.107855 0 0 1 15.773001,28.058856 12.107854,12.107855 0 0 1 3.6651467,15.951001 12.107854,12.107855 0 0 1 15.773001,3.8431462 12.107854,12.107855 0 0 1 27.880855,15.951001 Z"
         clip-path="none" />
    </clipPath>
    <clipPath
       clipPathUnits="userSpaceOnUse"
       id="clipPath2070">
      <path
         id="path2072"
         style="fill:#dcdcdc;fill-opacity:1;fill-rule:evenodd;stroke:#000000;stroke-width:0.284292;stroke-linecap:round;stroke-linejoin:round"
         d="M 27.880855,15.951001 A 12.107854,12.107855 0 0 1 15.773001,28.058856 12.107854,12.107855 0 0 1 3.6651467,15.951001 12.107854,12.107855 0 0 1 15.773001,3.8431462 12.107854,12.107855 0 0 1 27.880855,15.951001 Z"
         clip-path="none" />
    </clipPath>
    <clipPath
       clipPathUnits="userSpaceOnUse"
       id="clipPath2074">
      <path
         id="path2076"
         style="fill:#dcdcdc;fill-opacity:1;fill-rule:evenodd;stroke:#000000;stroke-width:0.284292;stroke-linecap:round;stroke-linejoin:round"
         d="M 27.880855,15.951001 A 12.107854,12.107855 0 0 1 15.773001,28.058856 12.107854,12.107855 0 0 1 3.6651467,15.951001 12.107854,12.107855 0 0 1 15.773001,3.8431462 12.107854,12.107855 0 0 1 27.880855,15.951001 Z"
         clip-path="none" />
    </clipPath>
    <clipPath
       clipPathUnits="userSpaceOnUse"
       id="clipPath2078">
      <path
         id="path2080"
         style="fill:#dcdcdc;fill-opacity:1;fill-rule:evenodd;stroke:#000000;stroke-width:0.284292;stroke-linecap:round;stroke-linejoin:round"
         d="M 27.880855,15.951001 A 12.107854,12.107855 0 0 1 15.773001,28.058856 12.107854,12.107855 0 0 1 3.6651467,15.951001 12.107854,12.107855 0 0 1 15.773001,3.8431462 12.107854,12.107855 0 0 1 27.880855,15.951001 Z"
         clip-path="none" />
    </clipPath>
    <clipPath
       clipPathUnits="userSpaceOnUse"
       id="clipPath2082">
      <path
         id="path2084"
         style="fill:#dcdcdc;fill-opacity:1;fill-rule:evenodd;stroke:#000000;stroke-width:0.284292;stroke-linecap:round;stroke-linejoin:round"
         d="M 27.880855,15.951001 A 12.107854,12.107855 0 0 1 15.773001,28.058856 12.107854,12.107855 0 0 1 3.6651467,15.951001 12.107854,12.107855 0 0 1 15.773001,3.8431462 12.107854,12.107855 0 0 1 27.880855,15.951001 Z"
         clip-path="none" />
    </clipPath>
    <clipPath
       clipPathUnits="userSpaceOnUse"
       id="clipPath2086">
      <path
         id="path2088"
         style="fill:#dcdcdc;fill-opacity:1;fill-rule:evenodd;stroke:#000000;stroke-width:0.284292;stroke-linecap:round;stroke-linejoin:round"
         d="M 27.880855,15.951001 A 12.107854,12.107855 0 0 1 15.773001,28.058856 12.107854,12.107855 0 0 1 3.6651467,15.951001 12.107854,12.107855 0 0 1 15.773001,3.8431462 12.107854,12.107855 0 0 1 27.880855,15.951001 Z"
         clip-path="none" />
    </clipPath>
    <clipPath
       clipPathUnits="userSpaceOnUse"
       id="clipPath2090">
      <path
         id="path2092"
         style="fill:#dcdcdc;fill-opacity:1;fill-rule:evenodd;stroke:#000000;stroke-width:0.284292;stroke-linecap:round;stroke-linejoin:round"
         d="M 27.880855,15.951001 A 12.107854,12.107855 0 0 1 15.773001,28.058856 12.107854,12.107855 0 0 1 3.6651467,15.951001 12.107854,12.107855 0 0 1 15.773001,3.8431462 12.107854,12.107855 0 0 1 27.880855,15.951001 Z"
         clip-path="none" />
    </clipPath>
    <clipPath
       clipPathUnits="userSpaceOnUse"
       id="clipPath2094">
      <path
         id="path2096"
         style="fill:#dcdcdc;fill-opacity:1;fill-rule:evenodd;stroke:#000000;stroke-width:0.284292;stroke-linecap:round;stroke-linejoin:round"
         d="M 27.880855,15.951001 A 12.107854,12.107855 0 0 1 15.773001,28.058856 12.107854,12.107855 0 0 1 3.6651467,15.951001 12.107854,12.107855 0 0 1 15.773001,3.8431462 12.107854,12.107855 0 0 1 27.880855,15.951001 Z"
         clip-path="none" />
    </clipPath>
    <clipPath
       clipPathUnits="userSpaceOnUse"
       id="clipPath2098">
      <path
         id="path2100"
         style="fill:#dcdcdc;fill-opacity:1;fill-rule:evenodd;stroke:#000000;stroke-width:0.284292;stroke-linecap:round;stroke-linejoin:round"
         d="M 27.880855,15.951001 A 12.107854,12.107855 0 0 1 15.773001,28.058856 12.107854,12.107855 0 0 1 3.6651467,15.951001 12.107854,12.107855 0 0 1 15.773001,3.8431462 12.107854,12.107855 0 0 1 27.880855,15.951001 Z"
         clip-path="none" />
    </clipPath>
    <clipPath
       clipPathUnits="userSpaceOnUse"
       id="clipPath2102">
      <path
         id="path2104"
         style="fill:#dcdcdc;fill-opacity:1;fill-rule:evenodd;stroke:#000000;stroke-width:0.284292;stroke-linecap:round;stroke-linejoin:round"
         d="M 27.880855,15.951001 A 12.107854,12.107855 0 0 1 15.773001,28.058856 12.107854,12.107855 0 0 1 3.6651467,15.951001 12.107854,12.107855 0 0 1 15.773001,3.8431462 12.107854,12.107855 0 0 1 27.880855,15.951001 Z"
         clip-path="none" />
    </clipPath>
    <clipPath
       clipPathUnits="userSpaceOnUse"
       id="clipPath2106">
      <path
         id="path2108"
         style="fill:#dcdcdc;fill-opacity:1;fill-rule:evenodd;stroke:#000000;stroke-width:0.284292;stroke-linecap:round;stroke-linejoin:round"
         d="M 27.880855,15.951001 A 12.107854,12.107855 0 0 1 15.773001,28.058856 12.107854,12.107855 0 0 1 3.6651467,15.951001 12.107854,12.107855 0 0 1 15.773001,3.8431462 12.107854,12.107855 0 0 1 27.880855,15.951001 Z"
         clip-path="none" />
    </clipPath>
    <clipPath
       clipPathUnits="userSpaceOnUse"
       id="clipPath2110">
      <path
         id="path2112"
         style="fill:#dcdcdc;fill-opacity:1;fill-rule:evenodd;stroke:#000000;stroke-width:0.284292;stroke-linecap:round;stroke-linejoin:round"
         d="M 27.880855,15.951001 A 12.107854,12.107855 0 0 1 15.773001,28.058856 12.107854,12.107855 0 0 1 3.6651467,15.951001 12.107854,12.107855 0 0 1 15.773001,3.8431462 12.107854,12.107855 0 0 1 27.880855,15.951001 Z"
         clip-path="none" />
    </clipPath>
    <clipPath
       clipPathUnits="userSpaceOnUse"
       id="clipPath2114">
      <path
         id="path2116"
         style="fill:#dcdcdc;fill-opacity:1;fill-rule:evenodd;stroke:#000000;stroke-width:0.284292;stroke-linecap:round;stroke-linejoin:round"
         d="M 27.880855,15.951001 A 12.107854,12.107855 0 0 1 15.773001,28.058856 12.107854,12.107855 0 0 1 3.6651467,15.951001 12.107854,12.107855 0 0 1 15.773001,3.8431462 12.107854,12.107855 0 0 1 27.880855,15.951001 Z"
         clip-path="none" />
    </clipPath>
    <clipPath
       clipPathUnits="userSpaceOnUse"
       id="clipPath2118">
      <path
         id="path2120"
         style="fill:#dcdcdc;fill-opacity:1;fill-rule:evenodd;stroke:#000000;stroke-width:0.284292;stroke-linecap:round;stroke-linejoin:round"
         d="M 27.880855,15.951001 A 12.107854,12.107855 0 0 1 15.773001,28.058856 12.107854,12.107855 0 0 1 3.6651467,15.951001 12.107854,12.107855 0 0 1 15.773001,3.8431462 12.107854,12.107855 0 0 1 27.880855,15.951001 Z"
         clip-path="none" />
    </clipPath>
    <clipPath
       clipPathUnits="userSpaceOnUse"
       id="clipPath2122">
      <path
         id="path2124"
         style="fill:#dcdcdc;fill-opacity:1;fill-rule:evenodd;stroke:#000000;stroke-width:0.284292;stroke-linecap:round;stroke-linejoin:round"
         d="M 27.880855,15.951001 A 12.107854,12.107855 0 0 1 15.773001,28.058856 12.107854,12.107855 0 0 1 3.6651467,15.951001 12.107854,12.107855 0 0 1 15.773001,3.8431462 12.107854,12.107855 0 0 1 27.880855,15.951001 Z"
         clip-path="none" />
    </clipPath>
    <clipPath
       clipPathUnits="userSpaceOnUse"
       id="clipPath2126">
      <path
         id="path2128"
         style="fill:#dcdcdc;fill-opacity:1;fill-rule:evenodd;stroke:#000000;stroke-width:0.284292;stroke-linecap:round;stroke-linejoin:round"
         d="M 27.880855,15.951001 A 12.107854,12.107855 0 0 1 15.773001,28.058856 12.107854,12.107855 0 0 1 3.6651467,15.951001 12.107854,12.107855 0 0 1 15.773001,3.8431462 12.107854,12.107855 0 0 1 27.880855,15.951001 Z"
         clip-path="none" />
    </clipPath>
    <clipPath
       clipPathUnits="userSpaceOnUse"
       id="clipPath4154">
      <circle
         style="fill:none;fill-opacity:1;stroke:#000000;stroke-width:0.748096;stroke-linecap:round;stroke-linejoin:round;stroke-miterlimit:4;stroke-dasharray:none"
         id="circle4156"
         cx="15.562304"
         cy="15.395881"
         r="18.146784" />
    </clipPath>
    <clipPath
       clipPathUnits="userSpaceOnUse"
       id="clipPath4158">
      <circle
         style="fill:none;fill-opacity:1;stroke:#000000;stroke-width:0.748096;stroke-linecap:round;stroke-linejoin:round;stroke-miterlimit:4;stroke-dasharray:none"
         id="circle4160"
         cx="15.562304"
         cy="15.395881"
         r="18.146784" />
    </clipPath>
    <clipPath
       clipPathUnits="userSpaceOnUse"
       id="clipPath4162">
      <circle
         style="fill:none;fill-opacity:1;stroke:#000000;stroke-width:0.748096;stroke-linecap:round;stroke-linejoin:round;stroke-miterlimit:4;stroke-dasharray:none"
         id="circle4164"
         cx="15.562304"
         cy="15.395881"
         r="18.146784" />
    </clipPath>
    <clipPath
       clipPathUnits="userSpaceOnUse"
       id="clipPath4166">
      <circle
         style="fill:none;fill-opacity:1;stroke:#000000;stroke-width:0.748096;stroke-linecap:round;stroke-linejoin:round;stroke-miterlimit:4;stroke-dasharray:none"
         id="circle4168"
         cx="15.562304"
         cy="15.395881"
         r="18.146784" />
    </clipPath>
    <clipPath
       clipPathUnits="userSpaceOnUse"
       id="clipPath4170">
      <circle
         style="fill:none;fill-opacity:1;stroke:#000000;stroke-width:0.748096;stroke-linecap:round;stroke-linejoin:round;stroke-miterlimit:4;stroke-dasharray:none"
         id="circle4172"
         cx="15.562304"
         cy="15.395881"
         r="18.146784" />
    </clipPath>
    <clipPath
       clipPathUnits="userSpaceOnUse"
       id="clipPath4174">
      <circle
         style="fill:none;fill-opacity:1;stroke:#000000;stroke-width:0.748096;stroke-linecap:round;stroke-linejoin:round;stroke-miterlimit:4;stroke-dasharray:none"
         id="circle4176"
         cx="15.562304"
         cy="15.395881"
         r="18.146784" />
    </clipPath>
    <clipPath
       clipPathUnits="userSpaceOnUse"
       id="clipPath4178">
      <circle
         style="fill:none;fill-opacity:1;stroke:#000000;stroke-width:0.570573;stroke-linecap:round;stroke-linejoin:round;stroke-miterlimit:4;stroke-dasharray:none"
         id="circle4180"
         cx="15.534507"
         cy="15.585576"
         r="13.840544"
         transform="rotate(-45)" />
    </clipPath>
    <clipPath
       clipPathUnits="userSpaceOnUse"
       id="clipPath4182">
      <circle
         style="fill:none;fill-opacity:1;stroke:#000000;stroke-width:0.570573;stroke-linecap:round;stroke-linejoin:round;stroke-miterlimit:4;stroke-dasharray:none"
         id="circle4184"
         cx="15.534507"
         cy="15.585576"
         r="13.840544" />
    </clipPath>
    <clipPath
       clipPathUnits="userSpaceOnUse"
       id="clipPath4186">
      <circle
         style="fill:none;fill-opacity:1;stroke:#000000;stroke-width:0.570573;stroke-linecap:round;stroke-linejoin:round;stroke-miterlimit:4;stroke-dasharray:none"
         id="circle4188"
         cx="15.534507"
         cy="15.585576"
         r="13.840544" />
    </clipPath>
    <clipPath
       clipPathUnits="userSpaceOnUse"
       id="clipPath4162-6">
      <circle
         style="fill:none;fill-opacity:1;stroke:#000000;stroke-width:0.748096;stroke-linecap:round;stroke-linejoin:round;stroke-miterlimit:4;stroke-dasharray:none"
         id="circle4164-5"
         cx="15.562304"
         cy="15.395881"
         r="18.146784" />
    </clipPath>
    <clipPath
       clipPathUnits="userSpaceOnUse"
       id="clipPath4162-8">
      <circle
         style="fill:none;fill-opacity:1;stroke:#000000;stroke-width:0.748096;stroke-linecap:round;stroke-linejoin:round;stroke-miterlimit:4;stroke-dasharray:none"
         id="circle4164-1"
         cx="15.562304"
         cy="15.395881"
         r="18.146784" />
    </clipPath>
    <clipPath
       clipPathUnits="userSpaceOnUse"
       id="clipPath4166-2">
      <circle
         style="fill:none;fill-opacity:1;stroke:#000000;stroke-width:0.748096;stroke-linecap:round;stroke-linejoin:round;stroke-miterlimit:4;stroke-dasharray:none"
         id="circle4168-6"
         cx="15.562304"
         cy="15.395881"
         r="18.146784" />
    </clipPath>
    <clipPath
       clipPathUnits="userSpaceOnUse"
       id="clipPath4158-1">
      <circle
         style="fill:none;fill-opacity:1;stroke:#000000;stroke-width:0.748096;stroke-linecap:round;stroke-linejoin:round;stroke-miterlimit:4;stroke-dasharray:none"
         id="circle4160-0"
         cx="15.562304"
         cy="15.395881"
         r="18.146784" />
    </clipPath>
    <clipPath
       clipPathUnits="userSpaceOnUse"
       id="clipPath4154-2">
      <circle
         style="fill:none;fill-opacity:1;stroke:#000000;stroke-width:0.748096;stroke-linecap:round;stroke-linejoin:round;stroke-miterlimit:4;stroke-dasharray:none"
         id="circle4156-7"
         cx="15.562304"
         cy="15.395881"
         r="18.146784" />
    </clipPath>
    <clipPath
       clipPathUnits="userSpaceOnUse"
       id="clipPath4174-0">
      <circle
         style="fill:none;fill-opacity:1;stroke:#000000;stroke-width:0.748096;stroke-linecap:round;stroke-linejoin:round;stroke-miterlimit:4;stroke-dasharray:none"
         id="circle4176-3"
         cx="15.562304"
         cy="15.395881"
         r="18.146784" />
    </clipPath>
    <clipPath
       clipPathUnits="userSpaceOnUse"
       id="clipPath4170-8">
      <circle
         style="fill:none;fill-opacity:1;stroke:#000000;stroke-width:0.748096;stroke-linecap:round;stroke-linejoin:round;stroke-miterlimit:4;stroke-dasharray:none"
         id="circle4172-0"
         cx="15.562304"
         cy="15.395881"
         r="18.146784" />
    </clipPath>
    <radialGradient
       xlink:href="#linearGradient8520"
       id="radialGradient11182-3"
       cx="183.50667"
       cy="142.3913"
       fx="183.50667"
       fy="142.3913"
       r="19"
       gradientUnits="userSpaceOnUse"
       gradientTransform="matrix(0.24329388,0,0,0.24329388,-22.554767,-34.747868)" />
    <radialGradient
       xlink:href="#linearGradient11154"
       id="radialGradient11182-2-3"
       cx="183.50667"
       cy="142.3913"
       fx="183.50667"
       fy="142.3913"
       r="19"
       gradientUnits="userSpaceOnUse"
       gradientTransform="matrix(0.85470377,0,0,0.85470377,132.80565,-9.7410232)" />
    <clipPath
       clipPathUnits="userSpaceOnUse"
       id="clipPath2054-3">
      <path
         id="path2056-8"
         style="fill:#dcdcdc;fill-opacity:1;fill-rule:evenodd;stroke:#000000;stroke-width:0.284292;stroke-linecap:round;stroke-linejoin:round"
         d="m 30.993803,-8.4356807 a 12.107855,12.107854 45 0 1 0,17.1230922 12.107855,12.107854 45 0 1 -17.123092,-6e-7 12.107855,12.107854 45 0 1 0,-17.1230921 12.107855,12.107854 45 0 1 17.123092,5e-7 z"
         clip-path="none" />
    </clipPath>
    <clipPath
       clipPathUnits="userSpaceOnUse"
       id="clipPath2058-5">
      <path
         id="path2060-1"
         style="fill:#dcdcdc;fill-opacity:1;fill-rule:evenodd;stroke:#000000;stroke-width:0.284292;stroke-linecap:round;stroke-linejoin:round"
         d="M 27.880855,15.951001 A 12.107854,12.107855 0 0 1 15.773001,28.058856 12.107854,12.107855 0 0 1 3.6651467,15.951001 12.107854,12.107855 0 0 1 15.773001,3.8431462 12.107854,12.107855 0 0 1 27.880855,15.951001 Z"
         clip-path="none" />
    </clipPath>
    <clipPath
       clipPathUnits="userSpaceOnUse"
       id="clipPath2062-0">
      <path
         id="path2064-8"
         style="fill:#dcdcdc;fill-opacity:1;fill-rule:evenodd;stroke:#000000;stroke-width:0.284292;stroke-linecap:round;stroke-linejoin:round"
         d="M 27.880855,15.951001 A 12.107854,12.107855 0 0 1 15.773001,28.058856 12.107854,12.107855 0 0 1 3.6651467,15.951001 12.107854,12.107855 0 0 1 15.773001,3.8431462 12.107854,12.107855 0 0 1 27.880855,15.951001 Z"
         clip-path="none" />
    </clipPath>
    <clipPath
       clipPathUnits="userSpaceOnUse"
       id="clipPath2066-7">
      <path
         id="path2068-6"
         style="fill:#dcdcdc;fill-opacity:1;fill-rule:evenodd;stroke:#000000;stroke-width:0.284292;stroke-linecap:round;stroke-linejoin:round"
         d="M 27.880855,15.951001 A 12.107854,12.107855 0 0 1 15.773001,28.058856 12.107854,12.107855 0 0 1 3.6651467,15.951001 12.107854,12.107855 0 0 1 15.773001,3.8431462 12.107854,12.107855 0 0 1 27.880855,15.951001 Z"
         clip-path="none" />
    </clipPath>
    <clipPath
       clipPathUnits="userSpaceOnUse"
       id="clipPath2070-3">
      <path
         id="path2072-5"
         style="fill:#dcdcdc;fill-opacity:1;fill-rule:evenodd;stroke:#000000;stroke-width:0.284292;stroke-linecap:round;stroke-linejoin:round"
         d="M 27.880855,15.951001 A 12.107854,12.107855 0 0 1 15.773001,28.058856 12.107854,12.107855 0 0 1 3.6651467,15.951001 12.107854,12.107855 0 0 1 15.773001,3.8431462 12.107854,12.107855 0 0 1 27.880855,15.951001 Z"
         clip-path="none" />
    </clipPath>
    <clipPath
       clipPathUnits="userSpaceOnUse"
       id="clipPath2074-0">
      <path
         id="path2076-8"
         style="fill:#dcdcdc;fill-opacity:1;fill-rule:evenodd;stroke:#000000;stroke-width:0.284292;stroke-linecap:round;stroke-linejoin:round"
         d="M 27.880855,15.951001 A 12.107854,12.107855 0 0 1 15.773001,28.058856 12.107854,12.107855 0 0 1 3.6651467,15.951001 12.107854,12.107855 0 0 1 15.773001,3.8431462 12.107854,12.107855 0 0 1 27.880855,15.951001 Z"
         clip-path="none" />
    </clipPath>
    <clipPath
       clipPathUnits="userSpaceOnUse"
       id="clipPath2078-0">
      <path
         id="path2080-4"
         style="fill:#dcdcdc;fill-opacity:1;fill-rule:evenodd;stroke:#000000;stroke-width:0.284292;stroke-linecap:round;stroke-linejoin:round"
         d="M 27.880855,15.951001 A 12.107854,12.107855 0 0 1 15.773001,28.058856 12.107854,12.107855 0 0 1 3.6651467,15.951001 12.107854,12.107855 0 0 1 15.773001,3.8431462 12.107854,12.107855 0 0 1 27.880855,15.951001 Z"
         clip-path="none" />
    </clipPath>
    <clipPath
       clipPathUnits="userSpaceOnUse"
       id="clipPath2082-1">
      <path
         id="path2084-1"
         style="fill:#dcdcdc;fill-opacity:1;fill-rule:evenodd;stroke:#000000;stroke-width:0.284292;stroke-linecap:round;stroke-linejoin:round"
         d="M 27.880855,15.951001 A 12.107854,12.107855 0 0 1 15.773001,28.058856 12.107854,12.107855 0 0 1 3.6651467,15.951001 12.107854,12.107855 0 0 1 15.773001,3.8431462 12.107854,12.107855 0 0 1 27.880855,15.951001 Z"
         clip-path="none" />
    </clipPath>
    <clipPath
       clipPathUnits="userSpaceOnUse"
       id="clipPath2086-3">
      <path
         id="path2088-5"
         style="fill:#dcdcdc;fill-opacity:1;fill-rule:evenodd;stroke:#000000;stroke-width:0.284292;stroke-linecap:round;stroke-linejoin:round"
         d="M 27.880855,15.951001 A 12.107854,12.107855 0 0 1 15.773001,28.058856 12.107854,12.107855 0 0 1 3.6651467,15.951001 12.107854,12.107855 0 0 1 15.773001,3.8431462 12.107854,12.107855 0 0 1 27.880855,15.951001 Z"
         clip-path="none" />
    </clipPath>
    <clipPath
       clipPathUnits="userSpaceOnUse"
       id="clipPath2090-9">
      <path
         id="path2092-3"
         style="fill:#dcdcdc;fill-opacity:1;fill-rule:evenodd;stroke:#000000;stroke-width:0.284292;stroke-linecap:round;stroke-linejoin:round"
         d="M 27.880855,15.951001 A 12.107854,12.107855 0 0 1 15.773001,28.058856 12.107854,12.107855 0 0 1 3.6651467,15.951001 12.107854,12.107855 0 0 1 15.773001,3.8431462 12.107854,12.107855 0 0 1 27.880855,15.951001 Z"
         clip-path="none" />
    </clipPath>
    <clipPath
       clipPathUnits="userSpaceOnUse"
       id="clipPath2094-4">
      <path
         id="path2096-1"
         style="fill:#dcdcdc;fill-opacity:1;fill-rule:evenodd;stroke:#000000;stroke-width:0.284292;stroke-linecap:round;stroke-linejoin:round"
         d="M 27.880855,15.951001 A 12.107854,12.107855 0 0 1 15.773001,28.058856 12.107854,12.107855 0 0 1 3.6651467,15.951001 12.107854,12.107855 0 0 1 15.773001,3.8431462 12.107854,12.107855 0 0 1 27.880855,15.951001 Z"
         clip-path="none" />
    </clipPath>
    <clipPath
       clipPathUnits="userSpaceOnUse"
       id="clipPath2098-5">
      <path
         id="path2100-0"
         style="fill:#dcdcdc;fill-opacity:1;fill-rule:evenodd;stroke:#000000;stroke-width:0.284292;stroke-linecap:round;stroke-linejoin:round"
         d="M 27.880855,15.951001 A 12.107854,12.107855 0 0 1 15.773001,28.058856 12.107854,12.107855 0 0 1 3.6651467,15.951001 12.107854,12.107855 0 0 1 15.773001,3.8431462 12.107854,12.107855 0 0 1 27.880855,15.951001 Z"
         clip-path="none" />
    </clipPath>
    <clipPath
       clipPathUnits="userSpaceOnUse"
       id="clipPath2102-8">
      <path
         id="path2104-3"
         style="fill:#dcdcdc;fill-opacity:1;fill-rule:evenodd;stroke:#000000;stroke-width:0.284292;stroke-linecap:round;stroke-linejoin:round"
         d="M 27.880855,15.951001 A 12.107854,12.107855 0 0 1 15.773001,28.058856 12.107854,12.107855 0 0 1 3.6651467,15.951001 12.107854,12.107855 0 0 1 15.773001,3.8431462 12.107854,12.107855 0 0 1 27.880855,15.951001 Z"
         clip-path="none" />
    </clipPath>
    <clipPath
       clipPathUnits="userSpaceOnUse"
       id="clipPath2106-5">
      <path
         id="path2108-6"
         style="fill:#dcdcdc;fill-opacity:1;fill-rule:evenodd;stroke:#000000;stroke-width:0.284292;stroke-linecap:round;stroke-linejoin:round"
         d="M 27.880855,15.951001 A 12.107854,12.107855 0 0 1 15.773001,28.058856 12.107854,12.107855 0 0 1 3.6651467,15.951001 12.107854,12.107855 0 0 1 15.773001,3.8431462 12.107854,12.107855 0 0 1 27.880855,15.951001 Z"
         clip-path="none" />
    </clipPath>
    <clipPath
       clipPathUnits="userSpaceOnUse"
       id="clipPath2110-5">
      <path
         id="path2112-9"
         style="fill:#dcdcdc;fill-opacity:1;fill-rule:evenodd;stroke:#000000;stroke-width:0.284292;stroke-linecap:round;stroke-linejoin:round"
         d="M 27.880855,15.951001 A 12.107854,12.107855 0 0 1 15.773001,28.058856 12.107854,12.107855 0 0 1 3.6651467,15.951001 12.107854,12.107855 0 0 1 15.773001,3.8431462 12.107854,12.107855 0 0 1 27.880855,15.951001 Z"
         clip-path="none" />
    </clipPath>
    <clipPath
       clipPathUnits="userSpaceOnUse"
       id="clipPath2114-9">
      <path
         id="path2116-0"
         style="fill:#dcdcdc;fill-opacity:1;fill-rule:evenodd;stroke:#000000;stroke-width:0.284292;stroke-linecap:round;stroke-linejoin:round"
         d="M 27.880855,15.951001 A 12.107854,12.107855 0 0 1 15.773001,28.058856 12.107854,12.107855 0 0 1 3.6651467,15.951001 12.107854,12.107855 0 0 1 15.773001,3.8431462 12.107854,12.107855 0 0 1 27.880855,15.951001 Z"
         clip-path="none" />
    </clipPath>
    <clipPath
       clipPathUnits="userSpaceOnUse"
       id="clipPath2118-7">
      <path
         id="path2120-6"
         style="fill:#dcdcdc;fill-opacity:1;fill-rule:evenodd;stroke:#000000;stroke-width:0.284292;stroke-linecap:round;stroke-linejoin:round"
         d="M 27.880855,15.951001 A 12.107854,12.107855 0 0 1 15.773001,28.058856 12.107854,12.107855 0 0 1 3.6651467,15.951001 12.107854,12.107855 0 0 1 15.773001,3.8431462 12.107854,12.107855 0 0 1 27.880855,15.951001 Z"
         clip-path="none" />
    </clipPath>
    <clipPath
       clipPathUnits="userSpaceOnUse"
       id="clipPath2122-3">
      <path
         id="path2124-7"
         style="fill:#dcdcdc;fill-opacity:1;fill-rule:evenodd;stroke:#000000;stroke-width:0.284292;stroke-linecap:round;stroke-linejoin:round"
         d="M 27.880855,15.951001 A 12.107854,12.107855 0 0 1 15.773001,28.058856 12.107854,12.107855 0 0 1 3.6651467,15.951001 12.107854,12.107855 0 0 1 15.773001,3.8431462 12.107854,12.107855 0 0 1 27.880855,15.951001 Z"
         clip-path="none" />
    </clipPath>
    <clipPath
       clipPathUnits="userSpaceOnUse"
       id="clipPath2126-6">
      <path
         id="path2128-1"
         style="fill:#dcdcdc;fill-opacity:1;fill-rule:evenodd;stroke:#000000;stroke-width:0.284292;stroke-linecap:round;stroke-linejoin:round"
         d="M 27.880855,15.951001 A 12.107854,12.107855 0 0 1 15.773001,28.058856 12.107854,12.107855 0 0 1 3.6651467,15.951001 12.107854,12.107855 0 0 1 15.773001,3.8431462 12.107854,12.107855 0 0 1 27.880855,15.951001 Z"
         clip-path="none" />
    </clipPath>
    <clipPath
       clipPathUnits="userSpaceOnUse"
       id="clipPath4154-5">
      <circle
         style="fill:none;fill-opacity:1;stroke:#000000;stroke-width:0.748096;stroke-linecap:round;stroke-linejoin:round;stroke-miterlimit:4;stroke-dasharray:none"
         id="circle4156-0"
         cx="15.562304"
         cy="15.395881"
         r="18.146784" />
    </clipPath>
    <clipPath
       clipPathUnits="userSpaceOnUse"
       id="clipPath4158-6">
      <circle
         style="fill:none;fill-opacity:1;stroke:#000000;stroke-width:0.748096;stroke-linecap:round;stroke-linejoin:round;stroke-miterlimit:4;stroke-dasharray:none"
         id="circle4160-5"
         cx="15.562304"
         cy="15.395881"
         r="18.146784" />
    </clipPath>
    <clipPath
       clipPathUnits="userSpaceOnUse"
       id="clipPath4162-0">
      <circle
         style="fill:none;fill-opacity:1;stroke:#000000;stroke-width:0.748096;stroke-linecap:round;stroke-linejoin:round;stroke-miterlimit:4;stroke-dasharray:none"
         id="circle4164-8"
         cx="15.562304"
         cy="15.395881"
         r="18.146784" />
    </clipPath>
    <clipPath
       clipPathUnits="userSpaceOnUse"
       id="clipPath4166-1">
      <circle
         style="fill:none;fill-opacity:1;stroke:#000000;stroke-width:0.748096;stroke-linecap:round;stroke-linejoin:round;stroke-miterlimit:4;stroke-dasharray:none"
         id="circle4168-2"
         cx="15.562304"
         cy="15.395881"
         r="18.146784" />
    </clipPath>
    <clipPath
       clipPathUnits="userSpaceOnUse"
       id="clipPath4170-2">
      <circle
         style="fill:none;fill-opacity:1;stroke:#000000;stroke-width:0.748096;stroke-linecap:round;stroke-linejoin:round;stroke-miterlimit:4;stroke-dasharray:none"
         id="circle4172-6"
         cx="15.562304"
         cy="15.395881"
         r="18.146784" />
    </clipPath>
    <clipPath
       clipPathUnits="userSpaceOnUse"
       id="clipPath4174-9">
      <circle
         style="fill:none;fill-opacity:1;stroke:#000000;stroke-width:0.748096;stroke-linecap:round;stroke-linejoin:round;stroke-miterlimit:4;stroke-dasharray:none"
         id="circle4176-1"
         cx="15.562304"
         cy="15.395881"
         r="18.146784" />
    </clipPath>
    <clipPath
       clipPathUnits="userSpaceOnUse"
       id="clipPath4178-0">
      <circle
         style="fill:none;fill-opacity:1;stroke:#000000;stroke-width:0.570573;stroke-linecap:round;stroke-linejoin:round;stroke-miterlimit:4;stroke-dasharray:none"
         id="circle4180-4"
         cx="15.534507"
         cy="15.585576"
         r="13.840544"
         transform="rotate(-45)" />
    </clipPath>
    <clipPath
       clipPathUnits="userSpaceOnUse"
       id="clipPath4182-2">
      <circle
         style="fill:none;fill-opacity:1;stroke:#000000;stroke-width:0.570573;stroke-linecap:round;stroke-linejoin:round;stroke-miterlimit:4;stroke-dasharray:none"
         id="circle4184-7"
         cx="15.534507"
         cy="15.585576"
         r="13.840544" />
    </clipPath>
    <clipPath
       clipPathUnits="userSpaceOnUse"
       id="clipPath4186-4">
      <circle
         style="fill:none;fill-opacity:1;stroke:#000000;stroke-width:0.570573;stroke-linecap:round;stroke-linejoin:round;stroke-miterlimit:4;stroke-dasharray:none"
         id="circle4188-0"
         cx="15.534507"
         cy="15.585576"
         r="13.840544" />
    </clipPath>
    <clipPath
       clipPathUnits="userSpaceOnUse"
       id="clipPath4162-6-3">
      <circle
         style="fill:none;fill-opacity:1;stroke:#000000;stroke-width:0.748096;stroke-linecap:round;stroke-linejoin:round;stroke-miterlimit:4;stroke-dasharray:none"
         id="circle4164-5-2"
         cx="15.562304"
         cy="15.395881"
         r="18.146784" />
    </clipPath>
    <clipPath
       clipPathUnits="userSpaceOnUse"
       id="clipPath4162-8-8">
      <circle
         style="fill:none;fill-opacity:1;stroke:#000000;stroke-width:0.748096;stroke-linecap:round;stroke-linejoin:round;stroke-miterlimit:4;stroke-dasharray:none"
         id="circle4164-1-0"
         cx="15.562304"
         cy="15.395881"
         r="18.146784" />
    </clipPath>
    <clipPath
       clipPathUnits="userSpaceOnUse"
       id="clipPath4166-2-3">
      <circle
         style="fill:none;fill-opacity:1;stroke:#000000;stroke-width:0.748096;stroke-linecap:round;stroke-linejoin:round;stroke-miterlimit:4;stroke-dasharray:none"
         id="circle4168-6-7"
         cx="15.562304"
         cy="15.395881"
         r="18.146784" />
    </clipPath>
    <clipPath
       clipPathUnits="userSpaceOnUse"
       id="clipPath4158-1-0">
      <circle
         style="fill:none;fill-opacity:1;stroke:#000000;stroke-width:0.748096;stroke-linecap:round;stroke-linejoin:round;stroke-miterlimit:4;stroke-dasharray:none"
         id="circle4160-0-0"
         cx="15.562304"
         cy="15.395881"
         r="18.146784" />
    </clipPath>
    <clipPath
       clipPathUnits="userSpaceOnUse"
       id="clipPath4154-2-3">
      <circle
         style="fill:none;fill-opacity:1;stroke:#000000;stroke-width:0.748096;stroke-linecap:round;stroke-linejoin:round;stroke-miterlimit:4;stroke-dasharray:none"
         id="circle4156-7-4"
         cx="15.562304"
         cy="15.395881"
         r="18.146784" />
    </clipPath>
    <clipPath
       clipPathUnits="userSpaceOnUse"
       id="clipPath4174-0-9">
      <circle
         style="fill:none;fill-opacity:1;stroke:#000000;stroke-width:0.748096;stroke-linecap:round;stroke-linejoin:round;stroke-miterlimit:4;stroke-dasharray:none"
         id="circle4176-3-2"
         cx="15.562304"
         cy="15.395881"
         r="18.146784" />
    </clipPath>
    <clipPath
       clipPathUnits="userSpaceOnUse"
       id="clipPath4170-8-7">
      <circle
         style="fill:none;fill-opacity:1;stroke:#000000;stroke-width:0.748096;stroke-linecap:round;stroke-linejoin:round;stroke-miterlimit:4;stroke-dasharray:none"
         id="circle4172-0-4"
         cx="15.562304"
         cy="15.395881"
         r="18.146784" />
    </clipPath>
    <radialGradient
       xlink:href="#linearGradient8520"
       id="radialGradient11182-8"
       cx="183.50667"
       cy="142.3913"
       fx="183.50667"
       fy="142.3913"
       r="19"
       gradientUnits="userSpaceOnUse"
       gradientTransform="matrix(0.24329388,0,0,0.24329388,-22.554767,-34.747868)" />
    <radialGradient
       xlink:href="#linearGradient11154"
       id="radialGradient11182-2-34"
       cx="183.50667"
       cy="142.3913"
       fx="183.50667"
       fy="142.3913"
       r="19"
       gradientUnits="userSpaceOnUse"
       gradientTransform="matrix(0.85470377,0,0,0.85470377,132.80565,-9.7410232)" />
    <clipPath
       clipPathUnits="userSpaceOnUse"
       id="clipPath2054-2">
      <path
         id="path2056-2"
         style="fill:#dcdcdc;fill-opacity:1;fill-rule:evenodd;stroke:#000000;stroke-width:0.284292;stroke-linecap:round;stroke-linejoin:round"
         d="m 30.993803,-8.4356807 a 12.107855,12.107854 45 0 1 0,17.1230922 12.107855,12.107854 45 0 1 -17.123092,-6e-7 12.107855,12.107854 45 0 1 0,-17.1230921 12.107855,12.107854 45 0 1 17.123092,5e-7 z"
         clip-path="none" />
    </clipPath>
    <clipPath
       clipPathUnits="userSpaceOnUse"
       id="clipPath2058-4">
      <path
         id="path2060-5"
         style="fill:#dcdcdc;fill-opacity:1;fill-rule:evenodd;stroke:#000000;stroke-width:0.284292;stroke-linecap:round;stroke-linejoin:round"
         d="M 27.880855,15.951001 A 12.107854,12.107855 0 0 1 15.773001,28.058856 12.107854,12.107855 0 0 1 3.6651467,15.951001 12.107854,12.107855 0 0 1 15.773001,3.8431462 12.107854,12.107855 0 0 1 27.880855,15.951001 Z"
         clip-path="none" />
    </clipPath>
    <clipPath
       clipPathUnits="userSpaceOnUse"
       id="clipPath2062-1">
      <path
         id="path2064-7"
         style="fill:#dcdcdc;fill-opacity:1;fill-rule:evenodd;stroke:#000000;stroke-width:0.284292;stroke-linecap:round;stroke-linejoin:round"
         d="M 27.880855,15.951001 A 12.107854,12.107855 0 0 1 15.773001,28.058856 12.107854,12.107855 0 0 1 3.6651467,15.951001 12.107854,12.107855 0 0 1 15.773001,3.8431462 12.107854,12.107855 0 0 1 27.880855,15.951001 Z"
         clip-path="none" />
    </clipPath>
    <clipPath
       clipPathUnits="userSpaceOnUse"
       id="clipPath2066-5">
      <path
         id="path2068-7"
         style="fill:#dcdcdc;fill-opacity:1;fill-rule:evenodd;stroke:#000000;stroke-width:0.284292;stroke-linecap:round;stroke-linejoin:round"
         d="M 27.880855,15.951001 A 12.107854,12.107855 0 0 1 15.773001,28.058856 12.107854,12.107855 0 0 1 3.6651467,15.951001 12.107854,12.107855 0 0 1 15.773001,3.8431462 12.107854,12.107855 0 0 1 27.880855,15.951001 Z"
         clip-path="none" />
    </clipPath>
    <clipPath
       clipPathUnits="userSpaceOnUse"
       id="clipPath2070-1">
      <path
         id="path2072-6"
         style="fill:#dcdcdc;fill-opacity:1;fill-rule:evenodd;stroke:#000000;stroke-width:0.284292;stroke-linecap:round;stroke-linejoin:round"
         d="M 27.880855,15.951001 A 12.107854,12.107855 0 0 1 15.773001,28.058856 12.107854,12.107855 0 0 1 3.6651467,15.951001 12.107854,12.107855 0 0 1 15.773001,3.8431462 12.107854,12.107855 0 0 1 27.880855,15.951001 Z"
         clip-path="none" />
    </clipPath>
    <clipPath
       clipPathUnits="userSpaceOnUse"
       id="clipPath2074-9">
      <path
         id="path2076-81"
         style="fill:#dcdcdc;fill-opacity:1;fill-rule:evenodd;stroke:#000000;stroke-width:0.284292;stroke-linecap:round;stroke-linejoin:round"
         d="M 27.880855,15.951001 A 12.107854,12.107855 0 0 1 15.773001,28.058856 12.107854,12.107855 0 0 1 3.6651467,15.951001 12.107854,12.107855 0 0 1 15.773001,3.8431462 12.107854,12.107855 0 0 1 27.880855,15.951001 Z"
         clip-path="none" />
    </clipPath>
    <clipPath
       clipPathUnits="userSpaceOnUse"
       id="clipPath2078-3">
      <path
         id="path2080-3"
         style="fill:#dcdcdc;fill-opacity:1;fill-rule:evenodd;stroke:#000000;stroke-width:0.284292;stroke-linecap:round;stroke-linejoin:round"
         d="M 27.880855,15.951001 A 12.107854,12.107855 0 0 1 15.773001,28.058856 12.107854,12.107855 0 0 1 3.6651467,15.951001 12.107854,12.107855 0 0 1 15.773001,3.8431462 12.107854,12.107855 0 0 1 27.880855,15.951001 Z"
         clip-path="none" />
    </clipPath>
    <clipPath
       clipPathUnits="userSpaceOnUse"
       id="clipPath2082-3">
      <path
         id="path2084-7"
         style="fill:#dcdcdc;fill-opacity:1;fill-rule:evenodd;stroke:#000000;stroke-width:0.284292;stroke-linecap:round;stroke-linejoin:round"
         d="M 27.880855,15.951001 A 12.107854,12.107855 0 0 1 15.773001,28.058856 12.107854,12.107855 0 0 1 3.6651467,15.951001 12.107854,12.107855 0 0 1 15.773001,3.8431462 12.107854,12.107855 0 0 1 27.880855,15.951001 Z"
         clip-path="none" />
    </clipPath>
    <clipPath
       clipPathUnits="userSpaceOnUse"
       id="clipPath2086-9">
      <path
         id="path2088-8"
         style="fill:#dcdcdc;fill-opacity:1;fill-rule:evenodd;stroke:#000000;stroke-width:0.284292;stroke-linecap:round;stroke-linejoin:round"
         d="M 27.880855,15.951001 A 12.107854,12.107855 0 0 1 15.773001,28.058856 12.107854,12.107855 0 0 1 3.6651467,15.951001 12.107854,12.107855 0 0 1 15.773001,3.8431462 12.107854,12.107855 0 0 1 27.880855,15.951001 Z"
         clip-path="none" />
    </clipPath>
    <clipPath
       clipPathUnits="userSpaceOnUse"
       id="clipPath2090-6">
      <path
         id="path2092-7"
         style="fill:#dcdcdc;fill-opacity:1;fill-rule:evenodd;stroke:#000000;stroke-width:0.284292;stroke-linecap:round;stroke-linejoin:round"
         d="M 27.880855,15.951001 A 12.107854,12.107855 0 0 1 15.773001,28.058856 12.107854,12.107855 0 0 1 3.6651467,15.951001 12.107854,12.107855 0 0 1 15.773001,3.8431462 12.107854,12.107855 0 0 1 27.880855,15.951001 Z"
         clip-path="none" />
    </clipPath>
    <clipPath
       clipPathUnits="userSpaceOnUse"
       id="clipPath2094-0">
      <path
         id="path2096-4"
         style="fill:#dcdcdc;fill-opacity:1;fill-rule:evenodd;stroke:#000000;stroke-width:0.284292;stroke-linecap:round;stroke-linejoin:round"
         d="M 27.880855,15.951001 A 12.107854,12.107855 0 0 1 15.773001,28.058856 12.107854,12.107855 0 0 1 3.6651467,15.951001 12.107854,12.107855 0 0 1 15.773001,3.8431462 12.107854,12.107855 0 0 1 27.880855,15.951001 Z"
         clip-path="none" />
    </clipPath>
    <clipPath
       clipPathUnits="userSpaceOnUse"
       id="clipPath2098-8">
      <path
         id="path2100-4"
         style="fill:#dcdcdc;fill-opacity:1;fill-rule:evenodd;stroke:#000000;stroke-width:0.284292;stroke-linecap:round;stroke-linejoin:round"
         d="M 27.880855,15.951001 A 12.107854,12.107855 0 0 1 15.773001,28.058856 12.107854,12.107855 0 0 1 3.6651467,15.951001 12.107854,12.107855 0 0 1 15.773001,3.8431462 12.107854,12.107855 0 0 1 27.880855,15.951001 Z"
         clip-path="none" />
    </clipPath>
    <clipPath
       clipPathUnits="userSpaceOnUse"
       id="clipPath2102-81">
      <path
         id="path2104-6"
         style="fill:#dcdcdc;fill-opacity:1;fill-rule:evenodd;stroke:#000000;stroke-width:0.284292;stroke-linecap:round;stroke-linejoin:round"
         d="M 27.880855,15.951001 A 12.107854,12.107855 0 0 1 15.773001,28.058856 12.107854,12.107855 0 0 1 3.6651467,15.951001 12.107854,12.107855 0 0 1 15.773001,3.8431462 12.107854,12.107855 0 0 1 27.880855,15.951001 Z"
         clip-path="none" />
    </clipPath>
    <clipPath
       clipPathUnits="userSpaceOnUse"
       id="clipPath2106-8">
      <path
         id="path2108-5"
         style="fill:#dcdcdc;fill-opacity:1;fill-rule:evenodd;stroke:#000000;stroke-width:0.284292;stroke-linecap:round;stroke-linejoin:round"
         d="M 27.880855,15.951001 A 12.107854,12.107855 0 0 1 15.773001,28.058856 12.107854,12.107855 0 0 1 3.6651467,15.951001 12.107854,12.107855 0 0 1 15.773001,3.8431462 12.107854,12.107855 0 0 1 27.880855,15.951001 Z"
         clip-path="none" />
    </clipPath>
    <clipPath
       clipPathUnits="userSpaceOnUse"
       id="clipPath2110-2">
      <path
         id="path2112-1"
         style="fill:#dcdcdc;fill-opacity:1;fill-rule:evenodd;stroke:#000000;stroke-width:0.284292;stroke-linecap:round;stroke-linejoin:round"
         d="M 27.880855,15.951001 A 12.107854,12.107855 0 0 1 15.773001,28.058856 12.107854,12.107855 0 0 1 3.6651467,15.951001 12.107854,12.107855 0 0 1 15.773001,3.8431462 12.107854,12.107855 0 0 1 27.880855,15.951001 Z"
         clip-path="none" />
    </clipPath>
    <clipPath
       clipPathUnits="userSpaceOnUse"
       id="clipPath2114-99">
      <path
         id="path2116-6"
         style="fill:#dcdcdc;fill-opacity:1;fill-rule:evenodd;stroke:#000000;stroke-width:0.284292;stroke-linecap:round;stroke-linejoin:round"
         d="M 27.880855,15.951001 A 12.107854,12.107855 0 0 1 15.773001,28.058856 12.107854,12.107855 0 0 1 3.6651467,15.951001 12.107854,12.107855 0 0 1 15.773001,3.8431462 12.107854,12.107855 0 0 1 27.880855,15.951001 Z"
         clip-path="none" />
    </clipPath>
    <clipPath
       clipPathUnits="userSpaceOnUse"
       id="clipPath2118-0">
      <path
         id="path2120-64"
         style="fill:#dcdcdc;fill-opacity:1;fill-rule:evenodd;stroke:#000000;stroke-width:0.284292;stroke-linecap:round;stroke-linejoin:round"
         d="M 27.880855,15.951001 A 12.107854,12.107855 0 0 1 15.773001,28.058856 12.107854,12.107855 0 0 1 3.6651467,15.951001 12.107854,12.107855 0 0 1 15.773001,3.8431462 12.107854,12.107855 0 0 1 27.880855,15.951001 Z"
         clip-path="none" />
    </clipPath>
    <clipPath
       clipPathUnits="userSpaceOnUse"
       id="clipPath2122-9">
      <path
         id="path2124-9"
         style="fill:#dcdcdc;fill-opacity:1;fill-rule:evenodd;stroke:#000000;stroke-width:0.284292;stroke-linecap:round;stroke-linejoin:round"
         d="M 27.880855,15.951001 A 12.107854,12.107855 0 0 1 15.773001,28.058856 12.107854,12.107855 0 0 1 3.6651467,15.951001 12.107854,12.107855 0 0 1 15.773001,3.8431462 12.107854,12.107855 0 0 1 27.880855,15.951001 Z"
         clip-path="none" />
    </clipPath>
    <clipPath
       clipPathUnits="userSpaceOnUse"
       id="clipPath2126-0">
      <path
         id="path2128-8"
         style="fill:#dcdcdc;fill-opacity:1;fill-rule:evenodd;stroke:#000000;stroke-width:0.284292;stroke-linecap:round;stroke-linejoin:round"
         d="M 27.880855,15.951001 A 12.107854,12.107855 0 0 1 15.773001,28.058856 12.107854,12.107855 0 0 1 3.6651467,15.951001 12.107854,12.107855 0 0 1 15.773001,3.8431462 12.107854,12.107855 0 0 1 27.880855,15.951001 Z"
         clip-path="none" />
    </clipPath>
    <clipPath
       clipPathUnits="userSpaceOnUse"
       id="clipPath4154-9">
      <circle
         style="fill:none;fill-opacity:1;stroke:#000000;stroke-width:0.748096;stroke-linecap:round;stroke-linejoin:round;stroke-miterlimit:4;stroke-dasharray:none"
         id="circle4156-3"
         cx="15.562304"
         cy="15.395881"
         r="18.146784" />
    </clipPath>
    <clipPath
       clipPathUnits="userSpaceOnUse"
       id="clipPath4158-14">
      <circle
         style="fill:none;fill-opacity:1;stroke:#000000;stroke-width:0.748096;stroke-linecap:round;stroke-linejoin:round;stroke-miterlimit:4;stroke-dasharray:none"
         id="circle4160-8"
         cx="15.562304"
         cy="15.395881"
         r="18.146784" />
    </clipPath>
    <clipPath
       clipPathUnits="userSpaceOnUse"
       id="clipPath4162-9">
      <circle
         style="fill:none;fill-opacity:1;stroke:#000000;stroke-width:0.748096;stroke-linecap:round;stroke-linejoin:round;stroke-miterlimit:4;stroke-dasharray:none"
         id="circle4164-6"
         cx="15.562304"
         cy="15.395881"
         r="18.146784" />
    </clipPath>
    <clipPath
       clipPathUnits="userSpaceOnUse"
       id="clipPath4166-7">
      <circle
         style="fill:none;fill-opacity:1;stroke:#000000;stroke-width:0.748096;stroke-linecap:round;stroke-linejoin:round;stroke-miterlimit:4;stroke-dasharray:none"
         id="circle4168-7"
         cx="15.562304"
         cy="15.395881"
         r="18.146784" />
    </clipPath>
    <clipPath
       clipPathUnits="userSpaceOnUse"
       id="clipPath4170-3">
      <circle
         style="fill:none;fill-opacity:1;stroke:#000000;stroke-width:0.748096;stroke-linecap:round;stroke-linejoin:round;stroke-miterlimit:4;stroke-dasharray:none"
         id="circle4172-7"
         cx="15.562304"
         cy="15.395881"
         r="18.146784" />
    </clipPath>
    <clipPath
       clipPathUnits="userSpaceOnUse"
       id="clipPath4174-1">
      <circle
         style="fill:none;fill-opacity:1;stroke:#000000;stroke-width:0.748096;stroke-linecap:round;stroke-linejoin:round;stroke-miterlimit:4;stroke-dasharray:none"
         id="circle4176-2"
         cx="15.562304"
         cy="15.395881"
         r="18.146784" />
    </clipPath>
    <clipPath
       clipPathUnits="userSpaceOnUse"
       id="clipPath4178-2">
      <circle
         style="fill:none;fill-opacity:1;stroke:#000000;stroke-width:0.570573;stroke-linecap:round;stroke-linejoin:round;stroke-miterlimit:4;stroke-dasharray:none"
         id="circle4180-1"
         cx="15.534507"
         cy="15.585576"
         r="13.840544"
         transform="rotate(-45)" />
    </clipPath>
    <clipPath
       clipPathUnits="userSpaceOnUse"
       id="clipPath4182-5">
      <circle
         style="fill:none;fill-opacity:1;stroke:#000000;stroke-width:0.570573;stroke-linecap:round;stroke-linejoin:round;stroke-miterlimit:4;stroke-dasharray:none"
         id="circle4184-0"
         cx="15.534507"
         cy="15.585576"
         r="13.840544" />
    </clipPath>
    <clipPath
       clipPathUnits="userSpaceOnUse"
       id="clipPath4186-9">
      <circle
         style="fill:none;fill-opacity:1;stroke:#000000;stroke-width:0.570573;stroke-linecap:round;stroke-linejoin:round;stroke-miterlimit:4;stroke-dasharray:none"
         id="circle4188-04"
         cx="15.534507"
         cy="15.585576"
         r="13.840544" />
    </clipPath>
    <clipPath
       clipPathUnits="userSpaceOnUse"
       id="clipPath4162-6-0">
      <circle
         style="fill:none;fill-opacity:1;stroke:#000000;stroke-width:0.748096;stroke-linecap:round;stroke-linejoin:round;stroke-miterlimit:4;stroke-dasharray:none"
         id="circle4164-5-1"
         cx="15.562304"
         cy="15.395881"
         r="18.146784" />
    </clipPath>
    <clipPath
       clipPathUnits="userSpaceOnUse"
       id="clipPath4162-8-3">
      <circle
         style="fill:none;fill-opacity:1;stroke:#000000;stroke-width:0.748096;stroke-linecap:round;stroke-linejoin:round;stroke-miterlimit:4;stroke-dasharray:none"
         id="circle4164-1-7"
         cx="15.562304"
         cy="15.395881"
         r="18.146784" />
    </clipPath>
    <clipPath
       clipPathUnits="userSpaceOnUse"
       id="clipPath4166-2-4">
      <circle
         style="fill:none;fill-opacity:1;stroke:#000000;stroke-width:0.748096;stroke-linecap:round;stroke-linejoin:round;stroke-miterlimit:4;stroke-dasharray:none"
         id="circle4168-6-1"
         cx="15.562304"
         cy="15.395881"
         r="18.146784" />
    </clipPath>
    <clipPath
       clipPathUnits="userSpaceOnUse"
       id="clipPath4158-1-1">
      <circle
         style="fill:none;fill-opacity:1;stroke:#000000;stroke-width:0.748096;stroke-linecap:round;stroke-linejoin:round;stroke-miterlimit:4;stroke-dasharray:none"
         id="circle4160-0-3"
         cx="15.562304"
         cy="15.395881"
         r="18.146784" />
    </clipPath>
    <clipPath
       clipPathUnits="userSpaceOnUse"
       id="clipPath4154-2-0">
      <circle
         style="fill:none;fill-opacity:1;stroke:#000000;stroke-width:0.748096;stroke-linecap:round;stroke-linejoin:round;stroke-miterlimit:4;stroke-dasharray:none"
         id="circle4156-7-3"
         cx="15.562304"
         cy="15.395881"
         r="18.146784" />
    </clipPath>
    <clipPath
       clipPathUnits="userSpaceOnUse"
       id="clipPath4174-0-2">
      <circle
         style="fill:none;fill-opacity:1;stroke:#000000;stroke-width:0.748096;stroke-linecap:round;stroke-linejoin:round;stroke-miterlimit:4;stroke-dasharray:none"
         id="circle4176-3-1"
         cx="15.562304"
         cy="15.395881"
         r="18.146784" />
    </clipPath>
    <clipPath
       clipPathUnits="userSpaceOnUse"
       id="clipPath4170-8-75">
      <circle
         style="fill:none;fill-opacity:1;stroke:#000000;stroke-width:0.748096;stroke-linecap:round;stroke-linejoin:round;stroke-miterlimit:4;stroke-dasharray:none"
         id="circle4172-0-6"
         cx="15.562304"
         cy="15.395881"
         r="18.146784" />
    </clipPath>
    <linearGradient
       inkscape:collect="always"
       id="linearGradient2108">
      <stop
         style="stop-color:#ffffff;stop-opacity:1"
         offset="0"
         id="stop2104" />
      <stop
         style="stop-color:#fff000;stop-opacity:1"
         offset="1"
         id="stop2106" />
    </linearGradient>
    <radialGradient
       xlink:href="#linearGradient8520"
       id="radialGradient11182-34"
       cx="183.50667"
       cy="142.3913"
       fx="183.50667"
       fy="142.3913"
       r="19"
       gradientUnits="userSpaceOnUse"
       gradientTransform="matrix(0.24329388,0,0,0.24329388,-22.554767,-34.747868)" />
    <radialGradient
       xlink:href="#linearGradient11154"
       id="radialGradient11182-2-4"
       cx="183.50667"
       cy="142.3913"
       fx="183.50667"
       fy="142.3913"
       r="19"
       gradientUnits="userSpaceOnUse"
       gradientTransform="matrix(0.85470377,0,0,0.85470377,132.80565,-9.7410232)" />
    <clipPath
       clipPathUnits="userSpaceOnUse"
       id="clipPath2054-39">
      <path
         id="path2056-7"
         style="fill:#dcdcdc;fill-opacity:1;fill-rule:evenodd;stroke:#000000;stroke-width:0.284292;stroke-linecap:round;stroke-linejoin:round"
         d="m 30.993803,-8.4356807 a 12.107855,12.107854 45 0 1 0,17.1230922 12.107855,12.107854 45 0 1 -17.123092,-6e-7 12.107855,12.107854 45 0 1 0,-17.1230921 12.107855,12.107854 45 0 1 17.123092,5e-7 z"
         clip-path="none" />
    </clipPath>
    <clipPath
       clipPathUnits="userSpaceOnUse"
       id="clipPath2058-2">
      <path
         id="path2060-58"
         style="fill:#dcdcdc;fill-opacity:1;fill-rule:evenodd;stroke:#000000;stroke-width:0.284292;stroke-linecap:round;stroke-linejoin:round"
         d="M 27.880855,15.951001 A 12.107854,12.107855 0 0 1 15.773001,28.058856 12.107854,12.107855 0 0 1 3.6651467,15.951001 12.107854,12.107855 0 0 1 15.773001,3.8431462 12.107854,12.107855 0 0 1 27.880855,15.951001 Z"
         clip-path="none" />
    </clipPath>
    <clipPath
       clipPathUnits="userSpaceOnUse"
       id="clipPath2062-9">
      <path
         id="path2064-0"
         style="fill:#dcdcdc;fill-opacity:1;fill-rule:evenodd;stroke:#000000;stroke-width:0.284292;stroke-linecap:round;stroke-linejoin:round"
         d="M 27.880855,15.951001 A 12.107854,12.107855 0 0 1 15.773001,28.058856 12.107854,12.107855 0 0 1 3.6651467,15.951001 12.107854,12.107855 0 0 1 15.773001,3.8431462 12.107854,12.107855 0 0 1 27.880855,15.951001 Z"
         clip-path="none" />
    </clipPath>
    <clipPath
       clipPathUnits="userSpaceOnUse"
       id="clipPath2066-2">
      <path
         id="path2068-4"
         style="fill:#dcdcdc;fill-opacity:1;fill-rule:evenodd;stroke:#000000;stroke-width:0.284292;stroke-linecap:round;stroke-linejoin:round"
         d="M 27.880855,15.951001 A 12.107854,12.107855 0 0 1 15.773001,28.058856 12.107854,12.107855 0 0 1 3.6651467,15.951001 12.107854,12.107855 0 0 1 15.773001,3.8431462 12.107854,12.107855 0 0 1 27.880855,15.951001 Z"
         clip-path="none" />
    </clipPath>
    <clipPath
       clipPathUnits="userSpaceOnUse"
       id="clipPath2070-7">
      <path
         id="path2072-65"
         style="fill:#dcdcdc;fill-opacity:1;fill-rule:evenodd;stroke:#000000;stroke-width:0.284292;stroke-linecap:round;stroke-linejoin:round"
         d="M 27.880855,15.951001 A 12.107854,12.107855 0 0 1 15.773001,28.058856 12.107854,12.107855 0 0 1 3.6651467,15.951001 12.107854,12.107855 0 0 1 15.773001,3.8431462 12.107854,12.107855 0 0 1 27.880855,15.951001 Z"
         clip-path="none" />
    </clipPath>
    <clipPath
       clipPathUnits="userSpaceOnUse"
       id="clipPath2074-7">
      <path
         id="path2076-1"
         style="fill:#dcdcdc;fill-opacity:1;fill-rule:evenodd;stroke:#000000;stroke-width:0.284292;stroke-linecap:round;stroke-linejoin:round"
         d="M 27.880855,15.951001 A 12.107854,12.107855 0 0 1 15.773001,28.058856 12.107854,12.107855 0 0 1 3.6651467,15.951001 12.107854,12.107855 0 0 1 15.773001,3.8431462 12.107854,12.107855 0 0 1 27.880855,15.951001 Z"
         clip-path="none" />
    </clipPath>
    <clipPath
       clipPathUnits="userSpaceOnUse"
       id="clipPath2078-33">
      <path
         id="path2080-38"
         style="fill:#dcdcdc;fill-opacity:1;fill-rule:evenodd;stroke:#000000;stroke-width:0.284292;stroke-linecap:round;stroke-linejoin:round"
         d="M 27.880855,15.951001 A 12.107854,12.107855 0 0 1 15.773001,28.058856 12.107854,12.107855 0 0 1 3.6651467,15.951001 12.107854,12.107855 0 0 1 15.773001,3.8431462 12.107854,12.107855 0 0 1 27.880855,15.951001 Z"
         clip-path="none" />
    </clipPath>
    <clipPath
       clipPathUnits="userSpaceOnUse"
       id="clipPath2082-5">
      <path
         id="path2084-10"
         style="fill:#dcdcdc;fill-opacity:1;fill-rule:evenodd;stroke:#000000;stroke-width:0.284292;stroke-linecap:round;stroke-linejoin:round"
         d="M 27.880855,15.951001 A 12.107854,12.107855 0 0 1 15.773001,28.058856 12.107854,12.107855 0 0 1 3.6651467,15.951001 12.107854,12.107855 0 0 1 15.773001,3.8431462 12.107854,12.107855 0 0 1 27.880855,15.951001 Z"
         clip-path="none" />
    </clipPath>
    <clipPath
       clipPathUnits="userSpaceOnUse"
       id="clipPath2086-8">
      <path
         id="path2088-7"
         style="fill:#dcdcdc;fill-opacity:1;fill-rule:evenodd;stroke:#000000;stroke-width:0.284292;stroke-linecap:round;stroke-linejoin:round"
         d="M 27.880855,15.951001 A 12.107854,12.107855 0 0 1 15.773001,28.058856 12.107854,12.107855 0 0 1 3.6651467,15.951001 12.107854,12.107855 0 0 1 15.773001,3.8431462 12.107854,12.107855 0 0 1 27.880855,15.951001 Z"
         clip-path="none" />
    </clipPath>
    <clipPath
       clipPathUnits="userSpaceOnUse"
       id="clipPath2090-63">
      <path
         id="path2092-5"
         style="fill:#dcdcdc;fill-opacity:1;fill-rule:evenodd;stroke:#000000;stroke-width:0.284292;stroke-linecap:round;stroke-linejoin:round"
         d="M 27.880855,15.951001 A 12.107854,12.107855 0 0 1 15.773001,28.058856 12.107854,12.107855 0 0 1 3.6651467,15.951001 12.107854,12.107855 0 0 1 15.773001,3.8431462 12.107854,12.107855 0 0 1 27.880855,15.951001 Z"
         clip-path="none" />
    </clipPath>
    <clipPath
       clipPathUnits="userSpaceOnUse"
       id="clipPath2094-08">
      <path
         id="path2096-0"
         style="fill:#dcdcdc;fill-opacity:1;fill-rule:evenodd;stroke:#000000;stroke-width:0.284292;stroke-linecap:round;stroke-linejoin:round"
         d="M 27.880855,15.951001 A 12.107854,12.107855 0 0 1 15.773001,28.058856 12.107854,12.107855 0 0 1 3.6651467,15.951001 12.107854,12.107855 0 0 1 15.773001,3.8431462 12.107854,12.107855 0 0 1 27.880855,15.951001 Z"
         clip-path="none" />
    </clipPath>
    <clipPath
       clipPathUnits="userSpaceOnUse"
       id="clipPath2098-4">
      <path
         id="path2100-1"
         style="fill:#dcdcdc;fill-opacity:1;fill-rule:evenodd;stroke:#000000;stroke-width:0.284292;stroke-linecap:round;stroke-linejoin:round"
         d="M 27.880855,15.951001 A 12.107854,12.107855 0 0 1 15.773001,28.058856 12.107854,12.107855 0 0 1 3.6651467,15.951001 12.107854,12.107855 0 0 1 15.773001,3.8431462 12.107854,12.107855 0 0 1 27.880855,15.951001 Z"
         clip-path="none" />
    </clipPath>
    <clipPath
       clipPathUnits="userSpaceOnUse"
       id="clipPath2102-1">
      <path
         id="path2104-35"
         style="fill:#dcdcdc;fill-opacity:1;fill-rule:evenodd;stroke:#000000;stroke-width:0.284292;stroke-linecap:round;stroke-linejoin:round"
         d="M 27.880855,15.951001 A 12.107854,12.107855 0 0 1 15.773001,28.058856 12.107854,12.107855 0 0 1 3.6651467,15.951001 12.107854,12.107855 0 0 1 15.773001,3.8431462 12.107854,12.107855 0 0 1 27.880855,15.951001 Z"
         clip-path="none" />
    </clipPath>
    <clipPath
       clipPathUnits="userSpaceOnUse"
       id="clipPath2106-9">
      <path
         id="path2108-3"
         style="fill:#dcdcdc;fill-opacity:1;fill-rule:evenodd;stroke:#000000;stroke-width:0.284292;stroke-linecap:round;stroke-linejoin:round"
         d="M 27.880855,15.951001 A 12.107854,12.107855 0 0 1 15.773001,28.058856 12.107854,12.107855 0 0 1 3.6651467,15.951001 12.107854,12.107855 0 0 1 15.773001,3.8431462 12.107854,12.107855 0 0 1 27.880855,15.951001 Z"
         clip-path="none" />
    </clipPath>
    <clipPath
       clipPathUnits="userSpaceOnUse"
       id="clipPath2110-4">
      <path
         id="path2112-15"
         style="fill:#dcdcdc;fill-opacity:1;fill-rule:evenodd;stroke:#000000;stroke-width:0.284292;stroke-linecap:round;stroke-linejoin:round"
         d="M 27.880855,15.951001 A 12.107854,12.107855 0 0 1 15.773001,28.058856 12.107854,12.107855 0 0 1 3.6651467,15.951001 12.107854,12.107855 0 0 1 15.773001,3.8431462 12.107854,12.107855 0 0 1 27.880855,15.951001 Z"
         clip-path="none" />
    </clipPath>
    <clipPath
       clipPathUnits="userSpaceOnUse"
       id="clipPath2114-0">
      <path
         id="path2116-8"
         style="fill:#dcdcdc;fill-opacity:1;fill-rule:evenodd;stroke:#000000;stroke-width:0.284292;stroke-linecap:round;stroke-linejoin:round"
         d="M 27.880855,15.951001 A 12.107854,12.107855 0 0 1 15.773001,28.058856 12.107854,12.107855 0 0 1 3.6651467,15.951001 12.107854,12.107855 0 0 1 15.773001,3.8431462 12.107854,12.107855 0 0 1 27.880855,15.951001 Z"
         clip-path="none" />
    </clipPath>
    <clipPath
       clipPathUnits="userSpaceOnUse"
       id="clipPath2118-3">
      <path
         id="path2120-5"
         style="fill:#dcdcdc;fill-opacity:1;fill-rule:evenodd;stroke:#000000;stroke-width:0.284292;stroke-linecap:round;stroke-linejoin:round"
         d="M 27.880855,15.951001 A 12.107854,12.107855 0 0 1 15.773001,28.058856 12.107854,12.107855 0 0 1 3.6651467,15.951001 12.107854,12.107855 0 0 1 15.773001,3.8431462 12.107854,12.107855 0 0 1 27.880855,15.951001 Z"
         clip-path="none" />
    </clipPath>
    <clipPath
       clipPathUnits="userSpaceOnUse"
       id="clipPath2122-6">
      <path
         id="path2124-5"
         style="fill:#dcdcdc;fill-opacity:1;fill-rule:evenodd;stroke:#000000;stroke-width:0.284292;stroke-linecap:round;stroke-linejoin:round"
         d="M 27.880855,15.951001 A 12.107854,12.107855 0 0 1 15.773001,28.058856 12.107854,12.107855 0 0 1 3.6651467,15.951001 12.107854,12.107855 0 0 1 15.773001,3.8431462 12.107854,12.107855 0 0 1 27.880855,15.951001 Z"
         clip-path="none" />
    </clipPath>
    <clipPath
       clipPathUnits="userSpaceOnUse"
       id="clipPath2126-9">
      <path
         id="path2128-9"
         style="fill:#dcdcdc;fill-opacity:1;fill-rule:evenodd;stroke:#000000;stroke-width:0.284292;stroke-linecap:round;stroke-linejoin:round"
         d="M 27.880855,15.951001 A 12.107854,12.107855 0 0 1 15.773001,28.058856 12.107854,12.107855 0 0 1 3.6651467,15.951001 12.107854,12.107855 0 0 1 15.773001,3.8431462 12.107854,12.107855 0 0 1 27.880855,15.951001 Z"
         clip-path="none" />
    </clipPath>
    <clipPath
       clipPathUnits="userSpaceOnUse"
       id="clipPath4154-0">
      <circle
         style="fill:none;fill-opacity:1;stroke:#000000;stroke-width:0.748096;stroke-linecap:round;stroke-linejoin:round;stroke-miterlimit:4;stroke-dasharray:none"
         id="circle4156-76"
         cx="15.562304"
         cy="15.395881"
         r="18.146784" />
    </clipPath>
    <clipPath
       clipPathUnits="userSpaceOnUse"
       id="clipPath4158-3">
      <circle
         style="fill:none;fill-opacity:1;stroke:#000000;stroke-width:0.748096;stroke-linecap:round;stroke-linejoin:round;stroke-miterlimit:4;stroke-dasharray:none"
         id="circle4160-7"
         cx="15.562304"
         cy="15.395881"
         r="18.146784" />
    </clipPath>
    <clipPath
       clipPathUnits="userSpaceOnUse"
       id="clipPath4162-61">
      <circle
         style="fill:none;fill-opacity:1;stroke:#000000;stroke-width:0.748096;stroke-linecap:round;stroke-linejoin:round;stroke-miterlimit:4;stroke-dasharray:none"
         id="circle4164-50"
         cx="15.562304"
         cy="15.395881"
         r="18.146784" />
    </clipPath>
    <clipPath
       clipPathUnits="userSpaceOnUse"
       id="clipPath4166-6">
      <circle
         style="fill:none;fill-opacity:1;stroke:#000000;stroke-width:0.748096;stroke-linecap:round;stroke-linejoin:round;stroke-miterlimit:4;stroke-dasharray:none"
         id="circle4168-5"
         cx="15.562304"
         cy="15.395881"
         r="18.146784" />
    </clipPath>
    <clipPath
       clipPathUnits="userSpaceOnUse"
       id="clipPath4170-0">
      <circle
         style="fill:none;fill-opacity:1;stroke:#000000;stroke-width:0.748096;stroke-linecap:round;stroke-linejoin:round;stroke-miterlimit:4;stroke-dasharray:none"
         id="circle4172-8"
         cx="15.562304"
         cy="15.395881"
         r="18.146784" />
    </clipPath>
    <clipPath
       clipPathUnits="userSpaceOnUse"
       id="clipPath4174-12">
      <circle
         style="fill:none;fill-opacity:1;stroke:#000000;stroke-width:0.748096;stroke-linecap:round;stroke-linejoin:round;stroke-miterlimit:4;stroke-dasharray:none"
         id="circle4176-26"
         cx="15.562304"
         cy="15.395881"
         r="18.146784" />
    </clipPath>
    <clipPath
       clipPathUnits="userSpaceOnUse"
       id="clipPath4178-9">
      <circle
         style="fill:none;fill-opacity:1;stroke:#000000;stroke-width:0.570573;stroke-linecap:round;stroke-linejoin:round;stroke-miterlimit:4;stroke-dasharray:none"
         id="circle4180-10"
         cx="15.534507"
         cy="15.585576"
         r="13.840544"
         transform="rotate(-45)" />
    </clipPath>
    <clipPath
       clipPathUnits="userSpaceOnUse"
       id="clipPath4182-4">
      <circle
         style="fill:none;fill-opacity:1;stroke:#000000;stroke-width:0.570573;stroke-linecap:round;stroke-linejoin:round;stroke-miterlimit:4;stroke-dasharray:none"
         id="circle4184-2"
         cx="15.534507"
         cy="15.585576"
         r="13.840544" />
    </clipPath>
    <clipPath
       clipPathUnits="userSpaceOnUse"
       id="clipPath4186-7">
      <circle
         style="fill:none;fill-opacity:1;stroke:#000000;stroke-width:0.570573;stroke-linecap:round;stroke-linejoin:round;stroke-miterlimit:4;stroke-dasharray:none"
         id="circle4188-4"
         cx="15.534507"
         cy="15.585576"
         r="13.840544" />
    </clipPath>
    <clipPath
       clipPathUnits="userSpaceOnUse"
       id="clipPath4162-6-03">
      <circle
         style="fill:none;fill-opacity:1;stroke:#000000;stroke-width:0.748096;stroke-linecap:round;stroke-linejoin:round;stroke-miterlimit:4;stroke-dasharray:none"
         id="circle4164-5-28"
         cx="15.562304"
         cy="15.395881"
         r="18.146784" />
    </clipPath>
    <clipPath
       clipPathUnits="userSpaceOnUse"
       id="clipPath4162-8-0">
      <circle
         style="fill:none;fill-opacity:1;stroke:#000000;stroke-width:0.748096;stroke-linecap:round;stroke-linejoin:round;stroke-miterlimit:4;stroke-dasharray:none"
         id="circle4164-1-3"
         cx="15.562304"
         cy="15.395881"
         r="18.146784" />
    </clipPath>
    <clipPath
       clipPathUnits="userSpaceOnUse"
       id="clipPath4166-2-7">
      <circle
         style="fill:none;fill-opacity:1;stroke:#000000;stroke-width:0.748096;stroke-linecap:round;stroke-linejoin:round;stroke-miterlimit:4;stroke-dasharray:none"
         id="circle4168-6-0"
         cx="15.562304"
         cy="15.395881"
         r="18.146784" />
    </clipPath>
    <clipPath
       clipPathUnits="userSpaceOnUse"
       id="clipPath4158-1-03">
      <circle
         style="fill:none;fill-opacity:1;stroke:#000000;stroke-width:0.748096;stroke-linecap:round;stroke-linejoin:round;stroke-miterlimit:4;stroke-dasharray:none"
         id="circle4160-0-4"
         cx="15.562304"
         cy="15.395881"
         r="18.146784" />
    </clipPath>
    <clipPath
       clipPathUnits="userSpaceOnUse"
       id="clipPath4154-2-9">
      <circle
         style="fill:none;fill-opacity:1;stroke:#000000;stroke-width:0.748096;stroke-linecap:round;stroke-linejoin:round;stroke-miterlimit:4;stroke-dasharray:none"
         id="circle4156-7-2"
         cx="15.562304"
         cy="15.395881"
         r="18.146784" />
    </clipPath>
    <clipPath
       clipPathUnits="userSpaceOnUse"
       id="clipPath4174-0-7">
      <circle
         style="fill:none;fill-opacity:1;stroke:#000000;stroke-width:0.748096;stroke-linecap:round;stroke-linejoin:round;stroke-miterlimit:4;stroke-dasharray:none"
         id="circle4176-3-4"
         cx="15.562304"
         cy="15.395881"
         r="18.146784" />
    </clipPath>
    <clipPath
       clipPathUnits="userSpaceOnUse"
       id="clipPath4170-8-2">
      <circle
         style="fill:none;fill-opacity:1;stroke:#000000;stroke-width:0.748096;stroke-linecap:round;stroke-linejoin:round;stroke-miterlimit:4;stroke-dasharray:none"
         id="circle4172-0-5"
         cx="15.562304"
         cy="15.395881"
         r="18.146784" />
    </clipPath>
    <radialGradient
       inkscape:collect="always"
       xlink:href="#linearGradient2108"
       id="radialGradient2110"
       cx="18.528477"
       cy="13.521323"
       fx="18.528477"
       fy="13.521323"
       r="3.917141"
       gradientTransform="matrix(-1.3387994,1.3660294,-1.3266054,-1.3257112,58.854598,5.2904598)"
       gradientUnits="userSpaceOnUse" />
    <clipPath
       clipPathUnits="userSpaceOnUse"
       id="clipPath2830">
      <path
         style="display:none;fill:none;stroke:#000000;stroke-width:0.264583px;stroke-linecap:butt;stroke-linejoin:miter;stroke-opacity:1"
         d="m 9.2,14.803107 h 13.846547 l -1.107692,9.594507 -9.812013,-0.231441 z"
         id="path2832" />
      <path
         id="lpe_path-effect2834"
         style="fill:none;stroke:#000000;stroke-width:0.264583px;stroke-linecap:butt;stroke-linejoin:miter;stroke-opacity:1"
         class="powerclip"
         d="M 4.2,2.8798333 H 28.046485 V 26.726319 H 4.2 Z m 5,11.9232737 2.926842,9.363066 9.812013,0.231441 1.107692,-9.594507 z" />
    </clipPath>
    <clipPath
       clipPathUnits="userSpaceOnUse"
       id="clipPath2830-9">
      <path
         style="display:none;fill:none;stroke:#000000;stroke-width:0.264583px;stroke-linecap:butt;stroke-linejoin:miter;stroke-opacity:1"
         d="m 9.2,14.803107 h 13.846547 l -1.107692,9.594507 -9.812013,-0.231441 z"
         id="path2832-8" />
      <path
         id="lpe_path-effect2834-6"
         style="fill:none;stroke:#000000;stroke-width:0.264583px;stroke-linecap:butt;stroke-linejoin:miter;stroke-opacity:1"
         class="powerclip"
         d="M 4.2,2.8798333 H 28.046546 V 26.726379 H 4.2 Z m 5,11.9232737 2.926842,9.363066 9.812013,0.231441 1.107692,-9.594507 z" />
    </clipPath>
    <inkscape:path-effect
       effect="powerclip"
       id="path-effect2834-7"
       is_visible="true"
       lpeversion="1"
       inverse="true"
       flatten="false"
       hide_clip="false"
       message="Füllregel Gerade-Ungerade im &lt;b&gt;Füllung und Kontur&lt;/b&gt;-Dialog verwenden, wenn das Anwenden des Ausschnitts mit nachfolgendem Umwandeln in Pfade kein Ergebnis bringt" />
    <clipPath
       clipPathUnits="userSpaceOnUse"
       id="clipPath4182-4-0">
      <circle
         style="fill:none;fill-opacity:1;stroke:#000000;stroke-width:0.570573;stroke-linecap:round;stroke-linejoin:round;stroke-miterlimit:4;stroke-dasharray:none"
         id="circle4184-2-4"
         cx="15.534507"
         cy="15.585576"
         r="13.840544" />
    </clipPath>
    <clipPath
       clipPathUnits="userSpaceOnUse"
       id="clipPath4178-9-8">
      <circle
         style="fill:none;fill-opacity:1;stroke:#000000;stroke-width:0.570573;stroke-linecap:round;stroke-linejoin:round;stroke-miterlimit:4;stroke-dasharray:none"
         id="circle4180-10-4"
         cx="15.534507"
         cy="15.585576"
         r="13.840544"
         transform="rotate(-45)" />
    </clipPath>
    <clipPath
       clipPathUnits="userSpaceOnUse"
       id="clipath_lpe_path-effect2834-7">
      <path
         style="display:block;fill:none;stroke:#000000;stroke-width:0.264583px;stroke-linecap:butt;stroke-linejoin:miter;stroke-opacity:1"
         d="m 9.2,14.803107 h 13.846547 l -1.107692,9.594507 -9.812013,-0.231441 z"
         id="path35115" />
    </clipPath>
    <radialGradient
       inkscape:collect="always"
       xlink:href="#linearGradient4000"
       id="radialGradient75803"
       cx="20.419046"
       cy="5.1039104"
       fx="20.419046"
       fy="5.1039104"
       r="10.735421"
       gradientTransform="matrix(-1.4840784,-0.24017213,0.38733356,-2.3934223,48.626107,20.632165)"
       gradientUnits="userSpaceOnUse" />
    <radialGradient
       inkscape:collect="always"
       xlink:href="#linearGradient45239"
       id="radialGradient77381"
       gradientUnits="userSpaceOnUse"
       gradientTransform="matrix(-1.4839526,-0.2409477,0.38791714,-2.3891103,48.620561,20.625993)"
       cx="20.419046"
       cy="5.1039104"
       fx="20.419046"
       fy="5.1039104"
       r="10.735421" />
    <radialGradient
       inkscape:collect="always"
       xlink:href="#linearGradient45239"
       id="radialGradient77383"
       gradientUnits="userSpaceOnUse"
       gradientTransform="matrix(-1.4840784,-0.24017213,0.38733356,-2.3934223,48.626107,20.632165)"
       cx="20.419046"
       cy="5.1039104"
       fx="20.419046"
       fy="5.1039104"
       r="10.735421" />
    <linearGradient
       inkscape:collect="always"
       xlink:href="#linearGradient2186"
       id="linearGradient2188"
       x1="15.168151"
       y1="29.012394"
       x2="17.114614"
       y2="29.012394"
       gradientUnits="userSpaceOnUse" />
    <linearGradient
       inkscape:collect="always"
       xlink:href="#linearGradient3035"
       id="linearGradient7339"
       gradientUnits="userSpaceOnUse"
       x1="14.671378"
       y1="29.012394"
       x2="17.562979"
       y2="29.012394" />
    <linearGradient
       inkscape:collect="always"
       xlink:href="#linearGradient2186"
       id="linearGradient3117"
       gradientUnits="userSpaceOnUse"
       x1="15.168151"
       y1="29.012394"
       x2="17.114614"
       y2="29.012394" />
    <linearGradient
       inkscape:collect="always"
       xlink:href="#linearGradient2186"
       id="linearGradient3119"
       gradientUnits="userSpaceOnUse"
       x1="15.168151"
       y1="29.012394"
       x2="17.114614"
       y2="29.012394" />
    <linearGradient
       inkscape:collect="always"
       xlink:href="#linearGradient2186"
       id="linearGradient3121"
       gradientUnits="userSpaceOnUse"
       x1="15.168151"
       y1="29.012394"
       x2="17.114614"
       y2="29.012394" />
    <linearGradient
       inkscape:collect="always"
       xlink:href="#linearGradient2186"
       id="linearGradient3123"
       gradientUnits="userSpaceOnUse"
       x1="15.168151"
       y1="29.012394"
       x2="17.114614"
       y2="29.012394" />
    <clipPath
       clipPathUnits="userSpaceOnUse"
       id="clipPath2321">
      <path
         id="lpe_path-effect2329"
         style="stroke-width:0.561936;stroke-linecap:round;stroke-linejoin:round"
         class="powerclip"
         d="M 0.38496876,-4.6098108 H 31.855811 V 27.15302 H 0.38496876 Z M 16.211323,4.5932218 a 6.6533291,6.6533291 0 0 0 -6.653681,6.6531842 6.6533291,6.6533291 0 0 0 0,0.0015 H 7.4110843 l 3.8118437,4.395132 a 6.6533291,6.6533291 0 0 0 4.988395,2.256549 6.6533291,6.6533291 0 0 0 5.244708,-2.563626 l 3.474408,-4.088065 h -2.065932 a 6.6533291,6.6533291 0 0 0 0,-0.0015 6.6533291,6.6533291 0 0 0 -6.653184,-6.6531836 z" />
    </clipPath>
    <clipPath
       clipPathUnits="userSpaceOnUse"
       id="clipPath2325">
      <path
         id="lpe_path-effect2333"
         style="stroke-width:0.561936;stroke-linecap:round;stroke-linejoin:round"
         class="powerclip"
         d="M 2.2511041,12.258334 H 30.074692 v 21.65386 H 2.2511041 Z M 16.211323,4.5932218 a 6.6533291,6.6533291 0 0 0 -6.653681,6.6531842 6.6533291,6.6533291 0 0 0 0,0.0015 H 7.4110843 l 3.8118437,4.395132 a 6.6533291,6.6533291 0 0 0 4.988395,2.256549 6.6533291,6.6533291 0 0 0 5.244708,-2.563626 l 3.474408,-4.088065 h -2.065932 a 6.6533291,6.6533291 0 0 0 0,-0.0015 6.6533291,6.6533291 0 0 0 -6.653184,-6.6531836 z" />
    </clipPath>
    <filter
       inkscape:collect="always"
       style="color-interpolation-filters:sRGB"
       id="filter3358"
       x="-0.070308608"
       y="-0.1841292"
       width="1.1406646"
       height="1.3742481">
      <feGaussianBlur
         inkscape:collect="always"
         stdDeviation="0.49125616"
         id="feGaussianBlur3360" />
    </filter>
  </defs>
  <g
     id="g35812"
     transform="matrix(1.1036694,0,0,1.1036694,-1.9167207,-0.93415086)">
    <g
       id="g35398"
       transform="translate(21.389614,-3.2278756)"
       style="fill:#961414;fill-opacity:1;stroke-width:1;stroke-miterlimit:4;stroke-dasharray:none">
      <path
         style="fill:#961414;fill-opacity:1;stroke:none;stroke-width:1;stroke-linecap:butt;stroke-linejoin:miter;stroke-miterlimit:4;stroke-dasharray:none;stroke-opacity:1"
         d="m -13.431614,15.347209 3.657126,4.216773 h 9.240896 L 3.050385,15.34721 Z"
         id="path2871-0" />
      <circle
         style="fill:#961414;fill-opacity:1;stroke:none;stroke-width:1;stroke-linecap:round;stroke-linejoin:round;stroke-miterlimit:4;stroke-dasharray:none"
         id="path1019-4-6"
         cx="-5.152668"
         cy="15.3459"
         r="6.2593522" />
    </g>
    <path
       style="fill:#961414;fill-opacity:1;stroke:#961414;stroke-width:0.002;stroke-linecap:butt;stroke-linejoin:miter;stroke-miterlimit:4;stroke-dasharray:none;stroke-opacity:1"
       d="m 7.9579998,11.061 v 1.058333 l 16.4819992,1e-6 v -1.058333 z"
       id="path35523"
       sodipodi:nodetypes="ccccc" />
  </g>
  <g
     id="g2180"
     style="fill:url(#linearGradient2188);fill-opacity:1"
     transform="matrix(1.0289073,0,0,1.0289073,-0.68213451,-0.54446343)">
    <path
       style="fill:url(#linearGradient3117);fill-opacity:1;stroke:none;stroke-width:0.267002px;stroke-linecap:butt;stroke-linejoin:miter;stroke-opacity:1"
       d="m 26.956979,13.688444 -0.0036,-3.027211 H 5.2988436 v 2.645876 z"
       id="path14917" />
    <g
       id="g1588"
       style="fill:url(#linearGradient3123);fill-opacity:1">
      <g
         id="g9714-3"
         style="fill:url(#linearGradient3121);fill-opacity:1;stroke:none"
         transform="matrix(1.0091441,0,0,1.0091441,-0.14254256,2.27627)">
        <path
           style="fill:url(#linearGradient7339);fill-opacity:1;stroke:none;stroke-width:0.496737px;stroke-linecap:butt;stroke-linejoin:miter;stroke-opacity:1"
           d="m 7.2511041,17.394664 7.9299249,10.53605 c 0.919084,1.224766 0.921932,1.222103 1.921529,-0.0096 l 7.972134,-10.662736 z"
           id="path2709-1"
           sodipodi:nodetypes="ccccc" />
        <ellipse
           style="fill:url(#linearGradient3119);fill-opacity:1;stroke:none;stroke-width:0.912855;stroke-linecap:round;stroke-linejoin:round"
           id="path1019-8"
           cx="16.12039"
           cy="11.271605"
           rx="10.735421"
           ry="10.881415" />
      </g>
    </g>
  </g>
  <g
     id="g1184-3"
     style="fill:#1a5fb4;fill-opacity:1"
     transform="translate(3.098086e-5,0.00163647)">
    <path
       id="path1019-4-4"
       style="stroke-width:0.583467;stroke-linecap:round;stroke-linejoin:round"
       d="M 22.911748,11.272091 A 6.9082561,6.9082561 0 0 1 16.003492,18.180347 6.9082561,6.9082561 0 0 1 9.0952363,11.272091 6.9082561,6.9082561 0 0 1 16.003492,4.3638349 6.9082561,6.9082561 0 0 1 22.911748,11.272091 Z" />
    <path
       style="fill:#1a5fb4;fill-opacity:1;stroke:none;stroke-width:0.332328px;stroke-linecap:butt;stroke-linejoin:miter;stroke-opacity:1"
       d="M 6.8662807,11.273537 10.902537,15.92746 H 21.101434 L 25.05696,11.273539 Z"
       id="path2871-4" />
  </g>
  <path
     style="fill:none;stroke:#000000;stroke-width:0.264583px;stroke-linecap:butt;stroke-linejoin:miter;stroke-opacity:0.80000001;filter:url(#filter3358)"
     d="m 6.866312,11.275173 4.036256,4.653923 c 3.376085,3.312437 7.699157,2.583859 10.198897,0 l 3.955445,-4.654004"
     id="path1216"
     sodipodi:nodetypes="cccc" />
  <g
     id="g9714"
     style="fill:url(#radialGradient75803);fill-opacity:1"
     transform="matrix(1.0383157,0,0,1.0383157,-0.82879761,-0.40513954)">
    <path
       id="path2051"
       clip-path="url(#clipPath2321)"
       d="M 26.855811,11.271605 A 10.735421,10.881415 0 0 1 16.12039,22.15302 10.735421,10.881415 0 0 1 5.3849688,11.271605 10.735421,10.881415 0 0 1 16.12039,0.39018917 10.735421,10.881415 0 0 1 26.855811,11.271605 Z"
       style="fill:url(#radialGradient77383);fill-opacity:1;stroke:none;stroke-width:0.912855;stroke-linecap:round;stroke-linejoin:round"
       transform="translate(6.2049805e-5,0.00138219)" />
    <path
       style="fill:url(#radialGradient77381);fill-opacity:1;stroke:none;stroke-width:0.496737px;stroke-linecap:butt;stroke-linejoin:miter;stroke-opacity:1"
       d="m 7.2511041,17.394664 7.9511779,10.564287 c 0.958107,1.268451 0.958435,1.265541 1.854129,0.02384 l 8.018281,-10.724457 z"
       id="path1815"
       sodipodi:nodetypes="ccccc"
       clip-path="url(#clipPath2325)"
       transform="translate(6.2049805e-5,0.00138219)" />
  </g>
  <g
     id="g6689"
     transform="matrix(1.313734,0,0,1.313734,-5.2200411,-8.1721707)"
     clip-path="url(#clipPath2830)"
     inkscape:path-effect="#path-effect2834">
    <g
       id="g924"
       transform="translate(0,-0.30016665)">
      <path
         style="fill:#ffdc00;fill-opacity:1;fill-rule:evenodd;stroke:none;stroke-width:0.729882;stroke-linecap:round;stroke-linejoin:round;stroke-miterlimit:4;stroke-dasharray:none;stroke-opacity:1"
         id="rect10551"
         width="9.2451792"
         height="9.2451677"
         x="11.21792"
         y="10.831184"
         sodipodi:type="rect"
         clip-path="url(#clipPath4182-4)"
         transform="matrix(1.0590384,0,0,1.0590384,-0.62139221,-1.3045496)"
         d="m 11.21792,10.831184 h 9.245179 v 9.245168 H 11.21792 Z" />
      <path
         style="fill:#ffeb00;fill-opacity:1;fill-rule:evenodd;stroke:none;stroke-width:0.729882;stroke-linecap:round;stroke-linejoin:round;stroke-miterlimit:4;stroke-dasharray:none;stroke-opacity:1"
         id="rect10551-0"
         width="9.2450867"
         height="9.2451677"
         x="17.468702"
         y="-4.7275214"
         transform="matrix(0.74885316,0.74885316,-0.74885316,0.74885316,-0.49843921,-1.3612736)"
         clip-path="url(#clipPath4178-9)"
         sodipodi:type="rect"
         d="m 17.468702,-4.7275214 9.245087,0 0,9.2451677 -9.245087,0 z" />
      <ellipse
         style="fill:url(#radialGradient2110);fill-opacity:1;stroke:none;stroke-width:2.91681;stroke-linecap:round;stroke-linejoin:round"
         id="path2004"
         cx="16.15"
         cy="15.099514"
         rx="5.25"
         ry="5.3014121"
         d="M 21.4,15.099514 A 5.25,5.3014121 0 0 1 16.15,20.400926 5.25,5.3014121 0 0 1 10.9,15.099514 5.25,5.3014121 0 0 1 16.15,9.7981019 5.25,5.3014121 0 0 1 21.4,15.099514 Z" />
    </g>
  </g>
  <g
     id="g1184"
     style="fill:#1a5fb4;fill-opacity:1" />
  <path
     style="fill:none;stroke:#ffe100;stroke-width:0.617344;stroke-linecap:round;stroke-linejoin:miter;stroke-miterlimit:4;stroke-dasharray:none;stroke-opacity:1"
     d="M 10.121953,12.449778 H 21.893132"
     id="path4216" />
  <path
     style="fill:none;stroke:#ffbe00;stroke-width:0.617344;stroke-linecap:round;stroke-linejoin:miter;stroke-miterlimit:4;stroke-dasharray:none;stroke-opacity:1"
     d="m 11.64909,13.993139 h 8.663897"
     id="path4216-9" />
  <path
     style="fill:none;stroke:#ff9b00;stroke-width:0.617344;stroke-linecap:round;stroke-linejoin:miter;stroke-miterlimit:4;stroke-dasharray:none;stroke-opacity:1"
     d="M 12.808637,15.5365 H 19.23493"
     id="path4216-2" />
  <path
     style="fill:none;fill-opacity:1;stroke:#ff7800;stroke-width:0.617344;stroke-linecap:round;stroke-linejoin:miter;stroke-miterlimit:4;stroke-dasharray:none;stroke-opacity:1"
     d="m 14.596171,17.079861 h 2.795865"
     id="path4216-2-2" />
</svg>
